[
    [
        "4",
        "5",
        "5",
        "4",
        "x",
        "x"
    ],
    [
        "x",
        "x",
        "6",
        "4",
        "3",
        "3"
    ],
    [
        "x",
        "x",
        "6",
        "7",
        "8",
        "7"
    ],
    [
        "x",
        "11",
        "12",
        "12",
        "12",
        "x"
    ],
    [
        "x",
        "11",
        "9",
        "12",
        "9",
        "10"
    ],
    [
        "16",
        "17",
        "17",
        "16",
        "x",
        "x"
    ],
    [
        "x",
        "x",
        "18",
        "16",
        "15",
        "15"
    ],
    [
        "x",
        "x",
        "18",
        "19",
        "20",
        "19"
    ]
]