[
    [
        "x",
        "0",
        "1",
        "1",
        "1",
        "x"
    ],
    [
        "5",
        "6",
        "6",
        "5",
        "x",
        "x"
    ],
    [
        "x",
        "x",
        "7",
        "5",
        "4",
        "4"
    ],
    [
        "x",
        "x",
        "7",
        "8",
        "9",
        "8"
    ],
    [
        "x",
        "12",
        "13",
        "13",
        "13",
        "x"
    ],
    [
        "x",
        "12",
        "10",
        "13",
        "10",
        "11"
    ],
    [
        "17",
        "18",
        "18",
        "17",
        "x",
        "x"
    ],
    [
        "x",
        "x",
        "19",
        "17",
        "16",
        "16"
    ],
    [
        "x",
        "x",
        "19",
        "20",
        "21",
        "20"
    ]
]