[
    [
        "x",
        "0",
        "3",
        "2",
        "0",
        "1"
    ],
    [
        "5",
        "2",
        "3",
        "2",
        "x",
        "x"
    ],
    [
        "5",
        "2",
        "3",
        "4",
        "x",
        "x"
    ],
    [
        "x",
        "x",
        "7",
        "4",
        "6",
        "5"
    ],
    [
        "x",
        "x",
        "7",
        "4",
        "6",
        "7"
    ],
    [
        "x",
        "x",
        "7",
        "10",
        "10",
        "7"
    ],
    [
        "x",
        "12",
        "9",
        "10",
        "10",
        "x"
    ],
    [
        "x",
        "12",
        "15",
        "14",
        "12",
        "13"
    ],
    [
        "x",
        "12",
        "9",
        "10",
        "12",
        "x"
    ],
    [
        "17",
        "14",
        "15",
        "14",
        "x",
        "x"
    ],
    [
        "17",
        "14",
        "15",
        "16",
        "x",
        "x"
    ],
    [
        "x",
        "x",
        "19",
        "16",
        "18",
        "17"
    ],
    [
        "x",
        "x",
        "19",
        "16",
        "18",
        "19"
    ],
    [
        "x",
        "x",
        "19",
        "22",
        "22",
        "19"
    ]
]