[
    [
        "x",
        "2",
        "1",
        "2",
        "1",
        "2"
    ],
    [
        "x",
        "2",
        "4",
        "5",
        "4",
        "5"
    ],
    [
        "7",
        "9",
        "7",
        "8",
        "7",
        "8"
    ],
    [
        "7",
        "9",
        "7",
        "8",
        "10",
        "8"
    ],
    [
        "7",
        "6",
        "7",
        "5",
        "x",
        "x"
    ],
    [
        "x",
        "x",
        "9",
        "8",
        "10",
        "8"
    ],
    [
        "x",
        "14",
        "13",
        "14",
        "13",
        "14"
    ],
    [
        "19",
        "21",
        "19",
        "20",
        "19",
        "20"
    ],
    [
        "x",
        "14",
        "16",
        "17",
        "16",
        "17"
    ],
    [
        "19",
        "21",
        "19",
        "20",
        "22",
        "20"
    ],
    [
        "19",
        "18",
        "19",
        "17",
        "x",
        "x"
    ],
    [
        "x",
        "x",
        "21",
        "20",
        "22",
        "20"
    ]
]