[
    [
        "x",
        "1",
        "3",
        "2",
        "2",
        "1"
    ],
    [
        "6",
        "8",
        "7",
        "6",
        "6",
        "6"
    ],
    [
        "6",
        "8",
        "7",
        "6",
        "6",
        "9"
    ],
    [
        "x",
        "x",
        "x",
        "3",
        "2",
        "5"
    ],
    [
        "x",
        "x",
        "8",
        "6",
        "6",
        "5"
    ],
    [
        "6",
        "4",
        "7",
        "6",
        "x",
        "x"
    ],
    [
        "18",
        "20",
        "19",
        "18",
        "18",
        "18"
    ],
    [
        "x",
        "x",
        "8",
        "10",
        "10",
        "9"
    ],
    [
        "x",
        "13",
        "15",
        "14",
        "14",
        "13"
    ],
    [
        "x",
        "13",
        "11",
        "10",
        "10",
        "13"
    ],
    [
        "x",
        "13",
        "11",
        "14",
        "11",
        "13"
    ],
    [
        "18",
        "20",
        "19",
        "18",
        "18",
        "21"
    ],
    [
        "x",
        "13",
        "11",
        "14",
        "14",
        "x"
    ],
    [
        "x",
        "x",
        "20",
        "18",
        "18",
        "17"
    ],
    [
        "18",
        "16",
        "19",
        "18",
        "x",
        "x"
    ],
    [
        "x",
        "x",
        "20",
        "22",
        "22",
        "21"
    ],
    [
        "x",
        "x",
        "x",
        "15",
        "14",
        "17"
    ]
]