[
    [
        "x",
        "2",
        "3",
        "4",
        "3",
        "x"
    ],
    [
        "7",
        "8",
        "9",
        "7",
        "x",
        "x"
    ],
    [
        "x",
        "x",
        "x",
        "4",
        "3",
        "1"
    ],
    [
        "x",
        "x",
        "9",
        "7",
        "6",
        "7"
    ],
    [
        "x",
        "x",
        "9",
        "10",
        "12",
        "10"
    ],
    [
        "x",
        "14",
        "15",
        "16",
        "15",
        "x"
    ],
    [
        "19",
        "20",
        "21",
        "19",
        "x",
        "x"
    ],
    [
        "x",
        "x",
        "x",
        "16",
        "15",
        "13"
    ],
    [
        "x",
        "x",
        "21",
        "19",
        "18",
        "19"
    ]
]