[
    [
        "x",
        "2",
        "0",
        "0",
        "3",
        "3"
    ],
    [
        "x",
        "2",
        "0",
        "0",
        "0",
        "3"
    ],
    [
        "x",
        "2",
        "5",
        "4",
        "3",
        "3"
    ],
    [
        "7",
        "10",
        "9",
        "7",
        "8",
        "7"
    ],
    [
        "7",
        "5",
        "5",
        "7",
        "8",
        "x"
    ],
    [
        "7",
        "5",
        "5",
        "4",
        "x",
        "x"
    ],
    [
        "x",
        "14",
        "12",
        "12",
        "15",
        "15"
    ],
    [
        "x",
        "x",
        "9",
        "7",
        "8",
        "10"
    ],
    [
        "x",
        "14",
        "12",
        "12",
        "12",
        "15"
    ],
    [
        "x",
        "14",
        "17",
        "16",
        "15",
        "15"
    ],
    [
        "19",
        "22",
        "21",
        "19",
        "20",
        "19"
    ],
    [
        "x",
        "x",
        "9",
        "12",
        "12",
        "10"
    ],
    [
        "19",
        "17",
        "17",
        "19",
        "20",
        "x"
    ],
    [
        "19",
        "17",
        "17",
        "16",
        "x",
        "x"
    ],
    [
        "x",
        "x",
        "21",
        "19",
        "20",
        "22"
    ]
]