[
    [
        "x",
        "2",
        "2",
        "4",
        "3",
        "x"
    ],
    [
        "7",
        "7",
        "9",
        "7",
        "x",
        "x"
    ],
    [
        "x",
        "x",
        "9",
        "9",
        "12",
        "10"
    ],
    [
        "x",
        "14",
        "14",
        "16",
        "15",
        "x"
    ],
    [
        "19",
        "19",
        "21",
        "19",
        "x",
        "x"
    ]
]