[
    [
        "x",
        "3",
        "2",
        "0",
        "1",
        "0"
    ],
    [
        "x",
        "3",
        "5",
        "5",
        "5",
        "3"
    ],
    [
        "x",
        "3",
        "2",
        "0",
        "1",
        "3"
    ],
    [
        "8",
        "10",
        "10",
        "9",
        "8",
        "8"
    ],
    [
        "8",
        "7",
        "5",
        "5",
        "5",
        "8"
    ],
    [
        "8",
        "7",
        "5",
        "5",
        "8",
        "x"
    ],
    [
        "x",
        "15",
        "14",
        "12",
        "13",
        "12"
    ],
    [
        "x",
        "15",
        "17",
        "17",
        "17",
        "15"
    ],
    [
        "20",
        "22",
        "22",
        "21",
        "20",
        "20"
    ],
    [
        "x",
        "x",
        "10",
        "12",
        "13",
        "12"
    ],
    [
        "20",
        "19",
        "17",
        "17",
        "17",
        "20"
    ],
    [
        "20",
        "19",
        "17",
        "17",
        "20",
        "x"
    ]
]