[
    "http://jguitar.com/chordsearch/C",
    "http://jguitar.com/chordsearch/C%23",
    "http://jguitar.com/chordsearch/Db",
    "http://jguitar.com/chordsearch/D",
    "http://jguitar.com/chordsearch/D%23",
    "http://jguitar.com/chordsearch/Eb",
    "http://jguitar.com/chordsearch/E",
    "http://jguitar.com/chordsearch/F",
    "http://jguitar.com/chordsearch/F%23",
    "http://jguitar.com/chordsearch/Gb",
    "http://jguitar.com/chordsearch/G",
    "http://jguitar.com/chordsearch/G%23",
    "http://jguitar.com/chordsearch/Ab",
    "http://jguitar.com/chordsearch/A",
    "http://jguitar.com/chordsearch/A%23",
    "http://jguitar.com/chordsearch/Bb",
    "http://jguitar.com/chordsearch/B",
    "http://jguitar.com/chordsearch/Cm",
    "http://jguitar.com/chordsearch/C%23m",
    "http://jguitar.com/chordsearch/Dbm",
    "http://jguitar.com/chordsearch/Dm",
    "http://jguitar.com/chordsearch/D%23m",
    "http://jguitar.com/chordsearch/Ebm",
    "http://jguitar.com/chordsearch/Em",
    "http://jguitar.com/chordsearch/Fm",
    "http://jguitar.com/chordsearch/F%23m",
    "http://jguitar.com/chordsearch/Gbm",
    "http://jguitar.com/chordsearch/Gm",
    "http://jguitar.com/chordsearch/G%23m",
    "http://jguitar.com/chordsearch/Abm",
    "http://jguitar.com/chordsearch/Am",
    "http://jguitar.com/chordsearch/A%23m",
    "http://jguitar.com/chordsearch/Bbm",
    "http://jguitar.com/chordsearch/Bm",
    "http://jguitar.com/chordsearch/Cdim",
    "http://jguitar.com/chordsearch/C%23dim",
    "http://jguitar.com/chordsearch/Dbdim",
    "http://jguitar.com/chordsearch/Ddim",
    "http://jguitar.com/chordsearch/D%23dim",
    "http://jguitar.com/chordsearch/Ebdim",
    "http://jguitar.com/chordsearch/Edim",
    "http://jguitar.com/chordsearch/Fdim",
    "http://jguitar.com/chordsearch/F%23dim",
    "http://jguitar.com/chordsearch/Gbdim",
    "http://jguitar.com/chordsearch/Gdim",
    "http://jguitar.com/chordsearch/G%23dim",
    "http://jguitar.com/chordsearch/Abdim",
    "http://jguitar.com/chordsearch/Adim",
    "http://jguitar.com/chordsearch/A%23dim",
    "http://jguitar.com/chordsearch/Bbdim",
    "http://jguitar.com/chordsearch/Bdim",
    "http://jguitar.com/chordsearch/C%2B",
    "http://jguitar.com/chordsearch/C%23%2B",
    "http://jguitar.com/chordsearch/Db%2B",
    "http://jguitar.com/chordsearch/D%2B",
    "http://jguitar.com/chordsearch/D%23%2B",
    "http://jguitar.com/chordsearch/Eb%2B",
    "http://jguitar.com/chordsearch/E%2B",
    "http://jguitar.com/chordsearch/F%2B",
    "http://jguitar.com/chordsearch/F%23%2B",
    "http://jguitar.com/chordsearch/Gb%2B",
    "http://jguitar.com/chordsearch/G%2B",
    "http://jguitar.com/chordsearch/G%23%2B",
    "http://jguitar.com/chordsearch/Ab%2B",
    "http://jguitar.com/chordsearch/A%2B",
    "http://jguitar.com/chordsearch/A%23%2B",
    "http://jguitar.com/chordsearch/Bb%2B",
    "http://jguitar.com/chordsearch/B%2B",
    "http://jguitar.com/chordsearch/Csus2",
    "http://jguitar.com/chordsearch/C%23sus2",
    "http://jguitar.com/chordsearch/Dbsus2",
    "http://jguitar.com/chordsearch/Dsus2",
    "http://jguitar.com/chordsearch/D%23sus2",
    "http://jguitar.com/chordsearch/Ebsus2",
    "http://jguitar.com/chordsearch/Esus2",
    "http://jguitar.com/chordsearch/Fsus2",
    "http://jguitar.com/chordsearch/F%23sus2",
    "http://jguitar.com/chordsearch/Gbsus2",
    "http://jguitar.com/chordsearch/Gsus2",
    "http://jguitar.com/chordsearch/G%23sus2",
    "http://jguitar.com/chordsearch/Absus2",
    "http://jguitar.com/chordsearch/Asus2",
    "http://jguitar.com/chordsearch/A%23sus2",
    "http://jguitar.com/chordsearch/Bbsus2",
    "http://jguitar.com/chordsearch/Bsus2",
    "http://jguitar.com/chordsearch/Csus4",
    "http://jguitar.com/chordsearch/C%23sus4",
    "http://jguitar.com/chordsearch/Dbsus4",
    "http://jguitar.com/chordsearch/Dsus4",
    "http://jguitar.com/chordsearch/D%23sus4",
    "http://jguitar.com/chordsearch/Ebsus4",
    "http://jguitar.com/chordsearch/Esus4",
    "http://jguitar.com/chordsearch/Fsus4",
    "http://jguitar.com/chordsearch/F%23sus4",
    "http://jguitar.com/chordsearch/Gbsus4",
    "http://jguitar.com/chordsearch/Gsus4",
    "http://jguitar.com/chordsearch/G%23sus4",
    "http://jguitar.com/chordsearch/Absus4",
    "http://jguitar.com/chordsearch/Asus4",
    "http://jguitar.com/chordsearch/A%23sus4",
    "http://jguitar.com/chordsearch/Bbsus4",
    "http://jguitar.com/chordsearch/Bsus4",
    "http://jguitar.com/chordsearch/CMb5",
    "http://jguitar.com/chordsearch/C%23Mb5",
    "http://jguitar.com/chordsearch/DbMb5",
    "http://jguitar.com/chordsearch/DMb5",
    "http://jguitar.com/chordsearch/D%23Mb5",
    "http://jguitar.com/chordsearch/EbMb5",
    "http://jguitar.com/chordsearch/EMb5",
    "http://jguitar.com/chordsearch/FMb5",
    "http://jguitar.com/chordsearch/F%23Mb5",
    "http://jguitar.com/chordsearch/GbMb5",
    "http://jguitar.com/chordsearch/GMb5",
    "http://jguitar.com/chordsearch/G%23Mb5",
    "http://jguitar.com/chordsearch/AbMb5",
    "http://jguitar.com/chordsearch/AMb5",
    "http://jguitar.com/chordsearch/A%23Mb5",
    "http://jguitar.com/chordsearch/BbMb5",
    "http://jguitar.com/chordsearch/BMb5",
    "http://jguitar.com/chordsearch/Cm%235",
    "http://jguitar.com/chordsearch/C%23m%235",
    "http://jguitar.com/chordsearch/Dbm%235",
    "http://jguitar.com/chordsearch/Dm%235",
    "http://jguitar.com/chordsearch/D%23m%235",
    "http://jguitar.com/chordsearch/Ebm%235",
    "http://jguitar.com/chordsearch/Em%235",
    "http://jguitar.com/chordsearch/Fm%235",
    "http://jguitar.com/chordsearch/F%23m%235",
    "http://jguitar.com/chordsearch/Gbm%235",
    "http://jguitar.com/chordsearch/Gm%235",
    "http://jguitar.com/chordsearch/G%23m%235",
    "http://jguitar.com/chordsearch/Abm%235",
    "http://jguitar.com/chordsearch/Am%235",
    "http://jguitar.com/chordsearch/A%23m%235",
    "http://jguitar.com/chordsearch/Bbm%235",
    "http://jguitar.com/chordsearch/Bm%235",
    "http://jguitar.com/chordsearch/Cmbb5",
    "http://jguitar.com/chordsearch/C%23mbb5",
    "http://jguitar.com/chordsearch/Dbmbb5",
    "http://jguitar.com/chordsearch/Dmbb5",
    "http://jguitar.com/chordsearch/D%23mbb5",
    "http://jguitar.com/chordsearch/Ebmbb5",
    "http://jguitar.com/chordsearch/Embb5",
    "http://jguitar.com/chordsearch/Fmbb5",
    "http://jguitar.com/chordsearch/F%23mbb5",
    "http://jguitar.com/chordsearch/Gbmbb5",
    "http://jguitar.com/chordsearch/Gmbb5",
    "http://jguitar.com/chordsearch/G%23mbb5",
    "http://jguitar.com/chordsearch/Abmbb5",
    "http://jguitar.com/chordsearch/Ambb5",
    "http://jguitar.com/chordsearch/A%23mbb5",
    "http://jguitar.com/chordsearch/Bbmbb5",
    "http://jguitar.com/chordsearch/Bmbb5",
    "http://jguitar.com/chordsearch/Csus4%235",
    "http://jguitar.com/chordsearch/C%23sus4%235",
    "http://jguitar.com/chordsearch/Dbsus4%235",
    "http://jguitar.com/chordsearch/Dsus4%235",
    "http://jguitar.com/chordsearch/D%23sus4%235",
    "http://jguitar.com/chordsearch/Ebsus4%235",
    "http://jguitar.com/chordsearch/Esus4%235",
    "http://jguitar.com/chordsearch/Fsus4%235",
    "http://jguitar.com/chordsearch/F%23sus4%235",
    "http://jguitar.com/chordsearch/Gbsus4%235",
    "http://jguitar.com/chordsearch/Gsus4%235",
    "http://jguitar.com/chordsearch/G%23sus4%235",
    "http://jguitar.com/chordsearch/Absus4%235",
    "http://jguitar.com/chordsearch/Asus4%235",
    "http://jguitar.com/chordsearch/A%23sus4%235",
    "http://jguitar.com/chordsearch/Bbsus4%235",
    "http://jguitar.com/chordsearch/Bsus4%235",
    "http://jguitar.com/chordsearch/Csus2b5",
    "http://jguitar.com/chordsearch/C%23sus2b5",
    "http://jguitar.com/chordsearch/Dbsus2b5",
    "http://jguitar.com/chordsearch/Dsus2b5",
    "http://jguitar.com/chordsearch/D%23sus2b5",
    "http://jguitar.com/chordsearch/Ebsus2b5",
    "http://jguitar.com/chordsearch/Esus2b5",
    "http://jguitar.com/chordsearch/Fsus2b5",
    "http://jguitar.com/chordsearch/F%23sus2b5",
    "http://jguitar.com/chordsearch/Gbsus2b5",
    "http://jguitar.com/chordsearch/Gsus2b5",
    "http://jguitar.com/chordsearch/G%23sus2b5",
    "http://jguitar.com/chordsearch/Absus2b5",
    "http://jguitar.com/chordsearch/Asus2b5",
    "http://jguitar.com/chordsearch/A%23sus2b5",
    "http://jguitar.com/chordsearch/Bbsus2b5",
    "http://jguitar.com/chordsearch/Bsus2b5",
    "http://jguitar.com/chordsearch/Csus2%235",
    "http://jguitar.com/chordsearch/C%23sus2%235",
    "http://jguitar.com/chordsearch/Dbsus2%235",
    "http://jguitar.com/chordsearch/Dsus2%235",
    "http://jguitar.com/chordsearch/D%23sus2%235",
    "http://jguitar.com/chordsearch/Ebsus2%235",
    "http://jguitar.com/chordsearch/Esus2%235",
    "http://jguitar.com/chordsearch/Fsus2%235",
    "http://jguitar.com/chordsearch/F%23sus2%235",
    "http://jguitar.com/chordsearch/Gbsus2%235",
    "http://jguitar.com/chordsearch/Gsus2%235",
    "http://jguitar.com/chordsearch/G%23sus2%235",
    "http://jguitar.com/chordsearch/Absus2%235",
    "http://jguitar.com/chordsearch/Asus2%235",
    "http://jguitar.com/chordsearch/A%23sus2%235",
    "http://jguitar.com/chordsearch/Bbsus2%235",
    "http://jguitar.com/chordsearch/Bsus2%235",
    "http://jguitar.com/chordsearch/C7",
    "http://jguitar.com/chordsearch/C%237",
    "http://jguitar.com/chordsearch/Db7",
    "http://jguitar.com/chordsearch/D7",
    "http://jguitar.com/chordsearch/D%237",
    "http://jguitar.com/chordsearch/Eb7",
    "http://jguitar.com/chordsearch/E7",
    "http://jguitar.com/chordsearch/F7",
    "http://jguitar.com/chordsearch/F%237",
    "http://jguitar.com/chordsearch/Gb7",
    "http://jguitar.com/chordsearch/G7",
    "http://jguitar.com/chordsearch/G%237",
    "http://jguitar.com/chordsearch/Ab7",
    "http://jguitar.com/chordsearch/A7",
    "http://jguitar.com/chordsearch/A%237",
    "http://jguitar.com/chordsearch/Bb7",
    "http://jguitar.com/chordsearch/B7",
    "http://jguitar.com/chordsearch/Cm7",
    "http://jguitar.com/chordsearch/C%23m7",
    "http://jguitar.com/chordsearch/Dbm7",
    "http://jguitar.com/chordsearch/Dm7",
    "http://jguitar.com/chordsearch/D%23m7",
    "http://jguitar.com/chordsearch/Ebm7",
    "http://jguitar.com/chordsearch/Em7",
    "http://jguitar.com/chordsearch/Fm7",
    "http://jguitar.com/chordsearch/F%23m7",
    "http://jguitar.com/chordsearch/Gbm7",
    "http://jguitar.com/chordsearch/Gm7",
    "http://jguitar.com/chordsearch/G%23m7",
    "http://jguitar.com/chordsearch/Abm7",
    "http://jguitar.com/chordsearch/Am7",
    "http://jguitar.com/chordsearch/A%23m7",
    "http://jguitar.com/chordsearch/Bbm7",
    "http://jguitar.com/chordsearch/Bm7",
    "http://jguitar.com/chordsearch/CM7",
    "http://jguitar.com/chordsearch/C%23M7",
    "http://jguitar.com/chordsearch/DbM7",
    "http://jguitar.com/chordsearch/DM7",
    "http://jguitar.com/chordsearch/D%23M7",
    "http://jguitar.com/chordsearch/EbM7",
    "http://jguitar.com/chordsearch/EM7",
    "http://jguitar.com/chordsearch/FM7",
    "http://jguitar.com/chordsearch/F%23M7",
    "http://jguitar.com/chordsearch/GbM7",
    "http://jguitar.com/chordsearch/GM7",
    "http://jguitar.com/chordsearch/G%23M7",
    "http://jguitar.com/chordsearch/AbM7",
    "http://jguitar.com/chordsearch/AM7",
    "http://jguitar.com/chordsearch/A%23M7",
    "http://jguitar.com/chordsearch/BbM7",
    "http://jguitar.com/chordsearch/BM7",
    "http://jguitar.com/chordsearch/CmM7",
    "http://jguitar.com/chordsearch/C%23mM7",
    "http://jguitar.com/chordsearch/DbmM7",
    "http://jguitar.com/chordsearch/DmM7",
    "http://jguitar.com/chordsearch/D%23mM7",
    "http://jguitar.com/chordsearch/EbmM7",
    "http://jguitar.com/chordsearch/EmM7",
    "http://jguitar.com/chordsearch/FmM7",
    "http://jguitar.com/chordsearch/F%23mM7",
    "http://jguitar.com/chordsearch/GbmM7",
    "http://jguitar.com/chordsearch/GmM7",
    "http://jguitar.com/chordsearch/G%23mM7",
    "http://jguitar.com/chordsearch/AbmM7",
    "http://jguitar.com/chordsearch/AmM7",
    "http://jguitar.com/chordsearch/A%23mM7",
    "http://jguitar.com/chordsearch/BbmM7",
    "http://jguitar.com/chordsearch/BmM7",
    "http://jguitar.com/chordsearch/Cdim7",
    "http://jguitar.com/chordsearch/C%23dim7",
    "http://jguitar.com/chordsearch/Dbdim7",
    "http://jguitar.com/chordsearch/Ddim7",
    "http://jguitar.com/chordsearch/D%23dim7",
    "http://jguitar.com/chordsearch/Ebdim7",
    "http://jguitar.com/chordsearch/Edim7",
    "http://jguitar.com/chordsearch/Fdim7",
    "http://jguitar.com/chordsearch/F%23dim7",
    "http://jguitar.com/chordsearch/Gbdim7",
    "http://jguitar.com/chordsearch/Gdim7",
    "http://jguitar.com/chordsearch/G%23dim7",
    "http://jguitar.com/chordsearch/Abdim7",
    "http://jguitar.com/chordsearch/Adim7",
    "http://jguitar.com/chordsearch/A%23dim7",
    "http://jguitar.com/chordsearch/Bbdim7",
    "http://jguitar.com/chordsearch/Bdim7",
    "http://jguitar.com/chordsearch/C%2B7",
    "http://jguitar.com/chordsearch/C%23%2B7",
    "http://jguitar.com/chordsearch/Db%2B7",
    "http://jguitar.com/chordsearch/D%2B7",
    "http://jguitar.com/chordsearch/D%23%2B7",
    "http://jguitar.com/chordsearch/Eb%2B7",
    "http://jguitar.com/chordsearch/E%2B7",
    "http://jguitar.com/chordsearch/F%2B7",
    "http://jguitar.com/chordsearch/F%23%2B7",
    "http://jguitar.com/chordsearch/Gb%2B7",
    "http://jguitar.com/chordsearch/G%2B7",
    "http://jguitar.com/chordsearch/G%23%2B7",
    "http://jguitar.com/chordsearch/Ab%2B7",
    "http://jguitar.com/chordsearch/A%2B7",
    "http://jguitar.com/chordsearch/A%23%2B7",
    "http://jguitar.com/chordsearch/Bb%2B7",
    "http://jguitar.com/chordsearch/B%2B7",
    "http://jguitar.com/chordsearch/C%2BM7",
    "http://jguitar.com/chordsearch/C%23%2BM7",
    "http://jguitar.com/chordsearch/Db%2BM7",
    "http://jguitar.com/chordsearch/D%2BM7",
    "http://jguitar.com/chordsearch/D%23%2BM7",
    "http://jguitar.com/chordsearch/Eb%2BM7",
    "http://jguitar.com/chordsearch/E%2BM7",
    "http://jguitar.com/chordsearch/F%2BM7",
    "http://jguitar.com/chordsearch/F%23%2BM7",
    "http://jguitar.com/chordsearch/Gb%2BM7",
    "http://jguitar.com/chordsearch/G%2BM7",
    "http://jguitar.com/chordsearch/G%23%2BM7",
    "http://jguitar.com/chordsearch/Ab%2BM7",
    "http://jguitar.com/chordsearch/A%2BM7",
    "http://jguitar.com/chordsearch/A%23%2BM7",
    "http://jguitar.com/chordsearch/Bb%2BM7",
    "http://jguitar.com/chordsearch/B%2BM7",
    "http://jguitar.com/chordsearch/C7b5",
    "http://jguitar.com/chordsearch/C%237b5",
    "http://jguitar.com/chordsearch/Db7b5",
    "http://jguitar.com/chordsearch/D7b5",
    "http://jguitar.com/chordsearch/D%237b5",
    "http://jguitar.com/chordsearch/Eb7b5",
    "http://jguitar.com/chordsearch/E7b5",
    "http://jguitar.com/chordsearch/F7b5",
    "http://jguitar.com/chordsearch/F%237b5",
    "http://jguitar.com/chordsearch/Gb7b5",
    "http://jguitar.com/chordsearch/G7b5",
    "http://jguitar.com/chordsearch/G%237b5",
    "http://jguitar.com/chordsearch/Ab7b5",
    "http://jguitar.com/chordsearch/A7b5",
    "http://jguitar.com/chordsearch/A%237b5",
    "http://jguitar.com/chordsearch/Bb7b5",
    "http://jguitar.com/chordsearch/B7b5",
    "http://jguitar.com/chordsearch/CM7b5",
    "http://jguitar.com/chordsearch/C%23M7b5",
    "http://jguitar.com/chordsearch/DbM7b5",
    "http://jguitar.com/chordsearch/DM7b5",
    "http://jguitar.com/chordsearch/D%23M7b5",
    "http://jguitar.com/chordsearch/EbM7b5",
    "http://jguitar.com/chordsearch/EM7b5",
    "http://jguitar.com/chordsearch/FM7b5",
    "http://jguitar.com/chordsearch/F%23M7b5",
    "http://jguitar.com/chordsearch/GbM7b5",
    "http://jguitar.com/chordsearch/GM7b5",
    "http://jguitar.com/chordsearch/G%23M7b5",
    "http://jguitar.com/chordsearch/AbM7b5",
    "http://jguitar.com/chordsearch/AM7b5",
    "http://jguitar.com/chordsearch/A%23M7b5",
    "http://jguitar.com/chordsearch/BbM7b5",
    "http://jguitar.com/chordsearch/BM7b5",
    "http://jguitar.com/chordsearch/Cm7b5",
    "http://jguitar.com/chordsearch/C%23m7b5",
    "http://jguitar.com/chordsearch/Dbm7b5",
    "http://jguitar.com/chordsearch/Dm7b5",
    "http://jguitar.com/chordsearch/D%23m7b5",
    "http://jguitar.com/chordsearch/Ebm7b5",
    "http://jguitar.com/chordsearch/Em7b5",
    "http://jguitar.com/chordsearch/Fm7b5",
    "http://jguitar.com/chordsearch/F%23m7b5",
    "http://jguitar.com/chordsearch/Gbm7b5",
    "http://jguitar.com/chordsearch/Gm7b5",
    "http://jguitar.com/chordsearch/G%23m7b5",
    "http://jguitar.com/chordsearch/Abm7b5",
    "http://jguitar.com/chordsearch/Am7b5",
    "http://jguitar.com/chordsearch/A%23m7b5",
    "http://jguitar.com/chordsearch/Bbm7b5",
    "http://jguitar.com/chordsearch/Bm7b5",
    "http://jguitar.com/chordsearch/CmM7b5",
    "http://jguitar.com/chordsearch/C%23mM7b5",
    "http://jguitar.com/chordsearch/DbmM7b5",
    "http://jguitar.com/chordsearch/DmM7b5",
    "http://jguitar.com/chordsearch/D%23mM7b5",
    "http://jguitar.com/chordsearch/EbmM7b5",
    "http://jguitar.com/chordsearch/EmM7b5",
    "http://jguitar.com/chordsearch/FmM7b5",
    "http://jguitar.com/chordsearch/F%23mM7b5",
    "http://jguitar.com/chordsearch/GbmM7b5",
    "http://jguitar.com/chordsearch/GmM7b5",
    "http://jguitar.com/chordsearch/G%23mM7b5",
    "http://jguitar.com/chordsearch/AbmM7b5",
    "http://jguitar.com/chordsearch/AmM7b5",
    "http://jguitar.com/chordsearch/A%23mM7b5",
    "http://jguitar.com/chordsearch/BbmM7b5",
    "http://jguitar.com/chordsearch/BmM7b5",
    "http://jguitar.com/chordsearch/CmM7bb5",
    "http://jguitar.com/chordsearch/C%23mM7bb5",
    "http://jguitar.com/chordsearch/DbmM7bb5",
    "http://jguitar.com/chordsearch/DmM7bb5",
    "http://jguitar.com/chordsearch/D%23mM7bb5",
    "http://jguitar.com/chordsearch/EbmM7bb5",
    "http://jguitar.com/chordsearch/EmM7bb5",
    "http://jguitar.com/chordsearch/FmM7bb5",
    "http://jguitar.com/chordsearch/F%23mM7bb5",
    "http://jguitar.com/chordsearch/GbmM7bb5",
    "http://jguitar.com/chordsearch/GmM7bb5",
    "http://jguitar.com/chordsearch/G%23mM7bb5",
    "http://jguitar.com/chordsearch/AbmM7bb5",
    "http://jguitar.com/chordsearch/AmM7bb5",
    "http://jguitar.com/chordsearch/A%23mM7bb5",
    "http://jguitar.com/chordsearch/BbmM7bb5",
    "http://jguitar.com/chordsearch/BmM7bb5",
    "http://jguitar.com/chordsearch/Cm7%235",
    "http://jguitar.com/chordsearch/C%23m7%235",
    "http://jguitar.com/chordsearch/Dbm7%235",
    "http://jguitar.com/chordsearch/Dm7%235",
    "http://jguitar.com/chordsearch/D%23m7%235",
    "http://jguitar.com/chordsearch/Ebm7%235",
    "http://jguitar.com/chordsearch/Em7%235",
    "http://jguitar.com/chordsearch/Fm7%235",
    "http://jguitar.com/chordsearch/F%23m7%235",
    "http://jguitar.com/chordsearch/Gbm7%235",
    "http://jguitar.com/chordsearch/Gm7%235",
    "http://jguitar.com/chordsearch/G%23m7%235",
    "http://jguitar.com/chordsearch/Abm7%235",
    "http://jguitar.com/chordsearch/Am7%235",
    "http://jguitar.com/chordsearch/A%23m7%235",
    "http://jguitar.com/chordsearch/Bbm7%235",
    "http://jguitar.com/chordsearch/Bm7%235",
    "http://jguitar.com/chordsearch/CmM7%235",
    "http://jguitar.com/chordsearch/C%23mM7%235",
    "http://jguitar.com/chordsearch/DbmM7%235",
    "http://jguitar.com/chordsearch/DmM7%235",
    "http://jguitar.com/chordsearch/D%23mM7%235",
    "http://jguitar.com/chordsearch/EbmM7%235",
    "http://jguitar.com/chordsearch/EmM7%235",
    "http://jguitar.com/chordsearch/FmM7%235",
    "http://jguitar.com/chordsearch/F%23mM7%235",
    "http://jguitar.com/chordsearch/GbmM7%235",
    "http://jguitar.com/chordsearch/GmM7%235",
    "http://jguitar.com/chordsearch/G%23mM7%235",
    "http://jguitar.com/chordsearch/AbmM7%235",
    "http://jguitar.com/chordsearch/AmM7%235",
    "http://jguitar.com/chordsearch/A%23mM7%235",
    "http://jguitar.com/chordsearch/BbmM7%235",
    "http://jguitar.com/chordsearch/BmM7%235",
    "http://jguitar.com/chordsearch/C7b9",
    "http://jguitar.com/chordsearch/C%237b9",
    "http://jguitar.com/chordsearch/Db7b9",
    "http://jguitar.com/chordsearch/D7b9",
    "http://jguitar.com/chordsearch/D%237b9",
    "http://jguitar.com/chordsearch/Eb7b9",
    "http://jguitar.com/chordsearch/E7b9",
    "http://jguitar.com/chordsearch/F7b9",
    "http://jguitar.com/chordsearch/F%237b9",
    "http://jguitar.com/chordsearch/Gb7b9",
    "http://jguitar.com/chordsearch/G7b9",
    "http://jguitar.com/chordsearch/G%237b9",
    "http://jguitar.com/chordsearch/Ab7b9",
    "http://jguitar.com/chordsearch/A7b9",
    "http://jguitar.com/chordsearch/A%237b9",
    "http://jguitar.com/chordsearch/Bb7b9",
    "http://jguitar.com/chordsearch/B7b9",
    "http://jguitar.com/chordsearch/C6",
    "http://jguitar.com/chordsearch/C%236",
    "http://jguitar.com/chordsearch/Db6",
    "http://jguitar.com/chordsearch/D6",
    "http://jguitar.com/chordsearch/D%236",
    "http://jguitar.com/chordsearch/Eb6",
    "http://jguitar.com/chordsearch/E6",
    "http://jguitar.com/chordsearch/F6",
    "http://jguitar.com/chordsearch/F%236",
    "http://jguitar.com/chordsearch/Gb6",
    "http://jguitar.com/chordsearch/G6",
    "http://jguitar.com/chordsearch/G%236",
    "http://jguitar.com/chordsearch/Ab6",
    "http://jguitar.com/chordsearch/A6",
    "http://jguitar.com/chordsearch/A%236",
    "http://jguitar.com/chordsearch/Bb6",
    "http://jguitar.com/chordsearch/B6",
    "http://jguitar.com/chordsearch/Cm6",
    "http://jguitar.com/chordsearch/C%23m6",
    "http://jguitar.com/chordsearch/Dbm6",
    "http://jguitar.com/chordsearch/Dm6",
    "http://jguitar.com/chordsearch/D%23m6",
    "http://jguitar.com/chordsearch/Ebm6",
    "http://jguitar.com/chordsearch/Em6",
    "http://jguitar.com/chordsearch/Fm6",
    "http://jguitar.com/chordsearch/F%23m6",
    "http://jguitar.com/chordsearch/Gbm6",
    "http://jguitar.com/chordsearch/Gm6",
    "http://jguitar.com/chordsearch/G%23m6",
    "http://jguitar.com/chordsearch/Abm6",
    "http://jguitar.com/chordsearch/Am6",
    "http://jguitar.com/chordsearch/A%23m6",
    "http://jguitar.com/chordsearch/Bbm6",
    "http://jguitar.com/chordsearch/Bm6",
    "http://jguitar.com/chordsearch/C6b5",
    "http://jguitar.com/chordsearch/C%236b5",
    "http://jguitar.com/chordsearch/Db6b5",
    "http://jguitar.com/chordsearch/D6b5",
    "http://jguitar.com/chordsearch/D%236b5",
    "http://jguitar.com/chordsearch/Eb6b5",
    "http://jguitar.com/chordsearch/E6b5",
    "http://jguitar.com/chordsearch/F6b5",
    "http://jguitar.com/chordsearch/F%236b5",
    "http://jguitar.com/chordsearch/Gb6b5",
    "http://jguitar.com/chordsearch/G6b5",
    "http://jguitar.com/chordsearch/G%236b5",
    "http://jguitar.com/chordsearch/Ab6b5",
    "http://jguitar.com/chordsearch/A6b5",
    "http://jguitar.com/chordsearch/A%236b5",
    "http://jguitar.com/chordsearch/Bb6b5",
    "http://jguitar.com/chordsearch/B6b5",
    "http://jguitar.com/chordsearch/C6add9",
    "http://jguitar.com/chordsearch/C%236add9",
    "http://jguitar.com/chordsearch/Db6add9",
    "http://jguitar.com/chordsearch/D6add9",
    "http://jguitar.com/chordsearch/D%236add9",
    "http://jguitar.com/chordsearch/Eb6add9",
    "http://jguitar.com/chordsearch/E6add9",
    "http://jguitar.com/chordsearch/F6add9",
    "http://jguitar.com/chordsearch/F%236add9",
    "http://jguitar.com/chordsearch/Gb6add9",
    "http://jguitar.com/chordsearch/G6add9",
    "http://jguitar.com/chordsearch/G%236add9",
    "http://jguitar.com/chordsearch/Ab6add9",
    "http://jguitar.com/chordsearch/A6add9",
    "http://jguitar.com/chordsearch/A%236add9",
    "http://jguitar.com/chordsearch/Bb6add9",
    "http://jguitar.com/chordsearch/B6add9",
    "http://jguitar.com/chordsearch/Cm6add9",
    "http://jguitar.com/chordsearch/C%23m6add9",
    "http://jguitar.com/chordsearch/Dbm6add9",
    "http://jguitar.com/chordsearch/Dm6add9",
    "http://jguitar.com/chordsearch/D%23m6add9",
    "http://jguitar.com/chordsearch/Ebm6add9",
    "http://jguitar.com/chordsearch/Em6add9",
    "http://jguitar.com/chordsearch/Fm6add9",
    "http://jguitar.com/chordsearch/F%23m6add9",
    "http://jguitar.com/chordsearch/Gbm6add9",
    "http://jguitar.com/chordsearch/Gm6add9",
    "http://jguitar.com/chordsearch/G%23m6add9",
    "http://jguitar.com/chordsearch/Abm6add9",
    "http://jguitar.com/chordsearch/Am6add9",
    "http://jguitar.com/chordsearch/A%23m6add9",
    "http://jguitar.com/chordsearch/Bbm6add9",
    "http://jguitar.com/chordsearch/Bm6add9",
    "http://jguitar.com/chordsearch/C9",
    "http://jguitar.com/chordsearch/C%239",
    "http://jguitar.com/chordsearch/Db9",
    "http://jguitar.com/chordsearch/D9",
    "http://jguitar.com/chordsearch/D%239",
    "http://jguitar.com/chordsearch/Eb9",
    "http://jguitar.com/chordsearch/E9",
    "http://jguitar.com/chordsearch/F9",
    "http://jguitar.com/chordsearch/F%239",
    "http://jguitar.com/chordsearch/Gb9",
    "http://jguitar.com/chordsearch/G9",
    "http://jguitar.com/chordsearch/G%239",
    "http://jguitar.com/chordsearch/Ab9",
    "http://jguitar.com/chordsearch/A9",
    "http://jguitar.com/chordsearch/A%239",
    "http://jguitar.com/chordsearch/Bb9",
    "http://jguitar.com/chordsearch/B9",
    "http://jguitar.com/chordsearch/Cm9",
    "http://jguitar.com/chordsearch/C%23m9",
    "http://jguitar.com/chordsearch/Dbm9",
    "http://jguitar.com/chordsearch/Dm9",
    "http://jguitar.com/chordsearch/D%23m9",
    "http://jguitar.com/chordsearch/Ebm9",
    "http://jguitar.com/chordsearch/Em9",
    "http://jguitar.com/chordsearch/Fm9",
    "http://jguitar.com/chordsearch/F%23m9",
    "http://jguitar.com/chordsearch/Gbm9",
    "http://jguitar.com/chordsearch/Gm9",
    "http://jguitar.com/chordsearch/G%23m9",
    "http://jguitar.com/chordsearch/Abm9",
    "http://jguitar.com/chordsearch/Am9",
    "http://jguitar.com/chordsearch/A%23m9",
    "http://jguitar.com/chordsearch/Bbm9",
    "http://jguitar.com/chordsearch/Bm9",
    "http://jguitar.com/chordsearch/CM9",
    "http://jguitar.com/chordsearch/C%23M9",
    "http://jguitar.com/chordsearch/DbM9",
    "http://jguitar.com/chordsearch/DM9",
    "http://jguitar.com/chordsearch/D%23M9",
    "http://jguitar.com/chordsearch/EbM9",
    "http://jguitar.com/chordsearch/EM9",
    "http://jguitar.com/chordsearch/FM9",
    "http://jguitar.com/chordsearch/F%23M9",
    "http://jguitar.com/chordsearch/GbM9",
    "http://jguitar.com/chordsearch/GM9",
    "http://jguitar.com/chordsearch/G%23M9",
    "http://jguitar.com/chordsearch/AbM9",
    "http://jguitar.com/chordsearch/AM9",
    "http://jguitar.com/chordsearch/A%23M9",
    "http://jguitar.com/chordsearch/BbM9",
    "http://jguitar.com/chordsearch/BM9",
    "http://jguitar.com/chordsearch/CmM9",
    "http://jguitar.com/chordsearch/C%23mM9",
    "http://jguitar.com/chordsearch/DbmM9",
    "http://jguitar.com/chordsearch/DmM9",
    "http://jguitar.com/chordsearch/D%23mM9",
    "http://jguitar.com/chordsearch/EbmM9",
    "http://jguitar.com/chordsearch/EmM9",
    "http://jguitar.com/chordsearch/FmM9",
    "http://jguitar.com/chordsearch/F%23mM9",
    "http://jguitar.com/chordsearch/GbmM9",
    "http://jguitar.com/chordsearch/GmM9",
    "http://jguitar.com/chordsearch/G%23mM9",
    "http://jguitar.com/chordsearch/AbmM9",
    "http://jguitar.com/chordsearch/AmM9",
    "http://jguitar.com/chordsearch/A%23mM9",
    "http://jguitar.com/chordsearch/BbmM9",
    "http://jguitar.com/chordsearch/BmM9",
    "http://jguitar.com/chordsearch/C9b5",
    "http://jguitar.com/chordsearch/C%239b5",
    "http://jguitar.com/chordsearch/Db9b5",
    "http://jguitar.com/chordsearch/D9b5",
    "http://jguitar.com/chordsearch/D%239b5",
    "http://jguitar.com/chordsearch/Eb9b5",
    "http://jguitar.com/chordsearch/E9b5",
    "http://jguitar.com/chordsearch/F9b5",
    "http://jguitar.com/chordsearch/F%239b5",
    "http://jguitar.com/chordsearch/Gb9b5",
    "http://jguitar.com/chordsearch/G9b5",
    "http://jguitar.com/chordsearch/G%239b5",
    "http://jguitar.com/chordsearch/Ab9b5",
    "http://jguitar.com/chordsearch/A9b5",
    "http://jguitar.com/chordsearch/A%239b5",
    "http://jguitar.com/chordsearch/Bb9b5",
    "http://jguitar.com/chordsearch/B9b5",
    "http://jguitar.com/chordsearch/C%2B9",
    "http://jguitar.com/chordsearch/C%23%2B9",
    "http://jguitar.com/chordsearch/Db%2B9",
    "http://jguitar.com/chordsearch/D%2B9",
    "http://jguitar.com/chordsearch/D%23%2B9",
    "http://jguitar.com/chordsearch/Eb%2B9",
    "http://jguitar.com/chordsearch/E%2B9",
    "http://jguitar.com/chordsearch/F%2B9",
    "http://jguitar.com/chordsearch/F%23%2B9",
    "http://jguitar.com/chordsearch/Gb%2B9",
    "http://jguitar.com/chordsearch/G%2B9",
    "http://jguitar.com/chordsearch/G%23%2B9",
    "http://jguitar.com/chordsearch/Ab%2B9",
    "http://jguitar.com/chordsearch/A%2B9",
    "http://jguitar.com/chordsearch/A%23%2B9",
    "http://jguitar.com/chordsearch/Bb%2B9",
    "http://jguitar.com/chordsearch/B%2B9",
    "http://jguitar.com/chordsearch/C9sus4",
    "http://jguitar.com/chordsearch/C%239sus4",
    "http://jguitar.com/chordsearch/Db9sus4",
    "http://jguitar.com/chordsearch/D9sus4",
    "http://jguitar.com/chordsearch/D%239sus4",
    "http://jguitar.com/chordsearch/Eb9sus4",
    "http://jguitar.com/chordsearch/E9sus4",
    "http://jguitar.com/chordsearch/F9sus4",
    "http://jguitar.com/chordsearch/F%239sus4",
    "http://jguitar.com/chordsearch/Gb9sus4",
    "http://jguitar.com/chordsearch/G9sus4",
    "http://jguitar.com/chordsearch/G%239sus4",
    "http://jguitar.com/chordsearch/Ab9sus4",
    "http://jguitar.com/chordsearch/A9sus4",
    "http://jguitar.com/chordsearch/A%239sus4",
    "http://jguitar.com/chordsearch/Bb9sus4",
    "http://jguitar.com/chordsearch/B9sus4",
    "http://jguitar.com/chordsearch/C7%239",
    "http://jguitar.com/chordsearch/C%237%239",
    "http://jguitar.com/chordsearch/Db7%239",
    "http://jguitar.com/chordsearch/D7%239",
    "http://jguitar.com/chordsearch/D%237%239",
    "http://jguitar.com/chordsearch/Eb7%239",
    "http://jguitar.com/chordsearch/E7%239",
    "http://jguitar.com/chordsearch/F7%239",
    "http://jguitar.com/chordsearch/F%237%239",
    "http://jguitar.com/chordsearch/Gb7%239",
    "http://jguitar.com/chordsearch/G7%239",
    "http://jguitar.com/chordsearch/G%237%239",
    "http://jguitar.com/chordsearch/Ab7%239",
    "http://jguitar.com/chordsearch/A7%239",
    "http://jguitar.com/chordsearch/A%237%239",
    "http://jguitar.com/chordsearch/Bb7%239",
    "http://jguitar.com/chordsearch/B7%239",
    "http://jguitar.com/chordsearch/C7%239b5",
    "http://jguitar.com/chordsearch/C%237%239b5",
    "http://jguitar.com/chordsearch/Db7%239b5",
    "http://jguitar.com/chordsearch/D7%239b5",
    "http://jguitar.com/chordsearch/D%237%239b5",
    "http://jguitar.com/chordsearch/Eb7%239b5",
    "http://jguitar.com/chordsearch/E7%239b5",
    "http://jguitar.com/chordsearch/F7%239b5",
    "http://jguitar.com/chordsearch/F%237%239b5",
    "http://jguitar.com/chordsearch/Gb7%239b5",
    "http://jguitar.com/chordsearch/G7%239b5",
    "http://jguitar.com/chordsearch/G%237%239b5",
    "http://jguitar.com/chordsearch/Ab7%239b5",
    "http://jguitar.com/chordsearch/A7%239b5",
    "http://jguitar.com/chordsearch/A%237%239b5",
    "http://jguitar.com/chordsearch/Bb7%239b5",
    "http://jguitar.com/chordsearch/B7%239b5",
    "http://jguitar.com/chordsearch/C%2BM9",
    "http://jguitar.com/chordsearch/C%23%2BM9",
    "http://jguitar.com/chordsearch/Db%2BM9",
    "http://jguitar.com/chordsearch/D%2BM9",
    "http://jguitar.com/chordsearch/D%23%2BM9",
    "http://jguitar.com/chordsearch/Eb%2BM9",
    "http://jguitar.com/chordsearch/E%2BM9",
    "http://jguitar.com/chordsearch/F%2BM9",
    "http://jguitar.com/chordsearch/F%23%2BM9",
    "http://jguitar.com/chordsearch/Gb%2BM9",
    "http://jguitar.com/chordsearch/G%2BM9",
    "http://jguitar.com/chordsearch/G%23%2BM9",
    "http://jguitar.com/chordsearch/Ab%2BM9",
    "http://jguitar.com/chordsearch/A%2BM9",
    "http://jguitar.com/chordsearch/A%23%2BM9",
    "http://jguitar.com/chordsearch/Bb%2BM9",
    "http://jguitar.com/chordsearch/B%2BM9",
    "http://jguitar.com/chordsearch/C11",
    "http://jguitar.com/chordsearch/C%2311",
    "http://jguitar.com/chordsearch/Db11",
    "http://jguitar.com/chordsearch/D11",
    "http://jguitar.com/chordsearch/D%2311",
    "http://jguitar.com/chordsearch/Eb11",
    "http://jguitar.com/chordsearch/E11",
    "http://jguitar.com/chordsearch/F11",
    "http://jguitar.com/chordsearch/F%2311",
    "http://jguitar.com/chordsearch/Gb11",
    "http://jguitar.com/chordsearch/G11",
    "http://jguitar.com/chordsearch/G%2311",
    "http://jguitar.com/chordsearch/Ab11",
    "http://jguitar.com/chordsearch/A11",
    "http://jguitar.com/chordsearch/A%2311",
    "http://jguitar.com/chordsearch/Bb11",
    "http://jguitar.com/chordsearch/B11",
    "http://jguitar.com/chordsearch/Cm11",
    "http://jguitar.com/chordsearch/C%23m11",
    "http://jguitar.com/chordsearch/Dbm11",
    "http://jguitar.com/chordsearch/Dm11",
    "http://jguitar.com/chordsearch/D%23m11",
    "http://jguitar.com/chordsearch/Ebm11",
    "http://jguitar.com/chordsearch/Em11",
    "http://jguitar.com/chordsearch/Fm11",
    "http://jguitar.com/chordsearch/F%23m11",
    "http://jguitar.com/chordsearch/Gbm11",
    "http://jguitar.com/chordsearch/Gm11",
    "http://jguitar.com/chordsearch/G%23m11",
    "http://jguitar.com/chordsearch/Abm11",
    "http://jguitar.com/chordsearch/Am11",
    "http://jguitar.com/chordsearch/A%23m11",
    "http://jguitar.com/chordsearch/Bbm11",
    "http://jguitar.com/chordsearch/Bm11",
    "http://jguitar.com/chordsearch/CM11",
    "http://jguitar.com/chordsearch/C%23M11",
    "http://jguitar.com/chordsearch/DbM11",
    "http://jguitar.com/chordsearch/DM11",
    "http://jguitar.com/chordsearch/D%23M11",
    "http://jguitar.com/chordsearch/EbM11",
    "http://jguitar.com/chordsearch/EM11",
    "http://jguitar.com/chordsearch/FM11",
    "http://jguitar.com/chordsearch/F%23M11",
    "http://jguitar.com/chordsearch/GbM11",
    "http://jguitar.com/chordsearch/GM11",
    "http://jguitar.com/chordsearch/G%23M11",
    "http://jguitar.com/chordsearch/AbM11",
    "http://jguitar.com/chordsearch/AM11",
    "http://jguitar.com/chordsearch/A%23M11",
    "http://jguitar.com/chordsearch/BbM11",
    "http://jguitar.com/chordsearch/BM11",
    "http://jguitar.com/chordsearch/CmM11",
    "http://jguitar.com/chordsearch/C%23mM11",
    "http://jguitar.com/chordsearch/DbmM11",
    "http://jguitar.com/chordsearch/DmM11",
    "http://jguitar.com/chordsearch/D%23mM11",
    "http://jguitar.com/chordsearch/EbmM11",
    "http://jguitar.com/chordsearch/EmM11",
    "http://jguitar.com/chordsearch/FmM11",
    "http://jguitar.com/chordsearch/F%23mM11",
    "http://jguitar.com/chordsearch/GbmM11",
    "http://jguitar.com/chordsearch/GmM11",
    "http://jguitar.com/chordsearch/G%23mM11",
    "http://jguitar.com/chordsearch/AbmM11",
    "http://jguitar.com/chordsearch/AmM11",
    "http://jguitar.com/chordsearch/A%23mM11",
    "http://jguitar.com/chordsearch/BbmM11",
    "http://jguitar.com/chordsearch/BmM11",
    "http://jguitar.com/chordsearch/CM%2311",
    "http://jguitar.com/chordsearch/C%23M%2311",
    "http://jguitar.com/chordsearch/DbM%2311",
    "http://jguitar.com/chordsearch/DM%2311",
    "http://jguitar.com/chordsearch/D%23M%2311",
    "http://jguitar.com/chordsearch/EbM%2311",
    "http://jguitar.com/chordsearch/EM%2311",
    "http://jguitar.com/chordsearch/FM%2311",
    "http://jguitar.com/chordsearch/F%23M%2311",
    "http://jguitar.com/chordsearch/GbM%2311",
    "http://jguitar.com/chordsearch/GM%2311",
    "http://jguitar.com/chordsearch/G%23M%2311",
    "http://jguitar.com/chordsearch/AbM%2311",
    "http://jguitar.com/chordsearch/AM%2311",
    "http://jguitar.com/chordsearch/A%23M%2311",
    "http://jguitar.com/chordsearch/BbM%2311",
    "http://jguitar.com/chordsearch/BM%2311",
    "http://jguitar.com/chordsearch/C13",
    "http://jguitar.com/chordsearch/C%2313",
    "http://jguitar.com/chordsearch/Db13",
    "http://jguitar.com/chordsearch/D13",
    "http://jguitar.com/chordsearch/D%2313",
    "http://jguitar.com/chordsearch/Eb13",
    "http://jguitar.com/chordsearch/E13",
    "http://jguitar.com/chordsearch/F13",
    "http://jguitar.com/chordsearch/F%2313",
    "http://jguitar.com/chordsearch/Gb13",
    "http://jguitar.com/chordsearch/G13",
    "http://jguitar.com/chordsearch/G%2313",
    "http://jguitar.com/chordsearch/Ab13",
    "http://jguitar.com/chordsearch/A13",
    "http://jguitar.com/chordsearch/A%2313",
    "http://jguitar.com/chordsearch/Bb13",
    "http://jguitar.com/chordsearch/B13",
    "http://jguitar.com/chordsearch/Cm13",
    "http://jguitar.com/chordsearch/C%23m13",
    "http://jguitar.com/chordsearch/Dbm13",
    "http://jguitar.com/chordsearch/Dm13",
    "http://jguitar.com/chordsearch/D%23m13",
    "http://jguitar.com/chordsearch/Ebm13",
    "http://jguitar.com/chordsearch/Em13",
    "http://jguitar.com/chordsearch/Fm13",
    "http://jguitar.com/chordsearch/F%23m13",
    "http://jguitar.com/chordsearch/Gbm13",
    "http://jguitar.com/chordsearch/Gm13",
    "http://jguitar.com/chordsearch/G%23m13",
    "http://jguitar.com/chordsearch/Abm13",
    "http://jguitar.com/chordsearch/Am13",
    "http://jguitar.com/chordsearch/A%23m13",
    "http://jguitar.com/chordsearch/Bbm13",
    "http://jguitar.com/chordsearch/Bm13",
    "http://jguitar.com/chordsearch/CM13",
    "http://jguitar.com/chordsearch/C%23M13",
    "http://jguitar.com/chordsearch/DbM13",
    "http://jguitar.com/chordsearch/DM13",
    "http://jguitar.com/chordsearch/D%23M13",
    "http://jguitar.com/chordsearch/EbM13",
    "http://jguitar.com/chordsearch/EM13",
    "http://jguitar.com/chordsearch/FM13",
    "http://jguitar.com/chordsearch/F%23M13",
    "http://jguitar.com/chordsearch/GbM13",
    "http://jguitar.com/chordsearch/GM13",
    "http://jguitar.com/chordsearch/G%23M13",
    "http://jguitar.com/chordsearch/AbM13",
    "http://jguitar.com/chordsearch/AM13",
    "http://jguitar.com/chordsearch/A%23M13",
    "http://jguitar.com/chordsearch/BbM13",
    "http://jguitar.com/chordsearch/BM13",
    "http://jguitar.com/chordsearch/CmM13",
    "http://jguitar.com/chordsearch/C%23mM13",
    "http://jguitar.com/chordsearch/DbmM13",
    "http://jguitar.com/chordsearch/DmM13",
    "http://jguitar.com/chordsearch/D%23mM13",
    "http://jguitar.com/chordsearch/EbmM13",
    "http://jguitar.com/chordsearch/EmM13",
    "http://jguitar.com/chordsearch/FmM13",
    "http://jguitar.com/chordsearch/F%23mM13",
    "http://jguitar.com/chordsearch/GbmM13",
    "http://jguitar.com/chordsearch/GmM13",
    "http://jguitar.com/chordsearch/G%23mM13",
    "http://jguitar.com/chordsearch/AbmM13",
    "http://jguitar.com/chordsearch/AmM13",
    "http://jguitar.com/chordsearch/A%23mM13",
    "http://jguitar.com/chordsearch/BbmM13",
    "http://jguitar.com/chordsearch/BmM13",
    "http://jguitar.com/chordsearch/C7sus2",
    "http://jguitar.com/chordsearch/C%237sus2",
    "http://jguitar.com/chordsearch/Db7sus2",
    "http://jguitar.com/chordsearch/D7sus2",
    "http://jguitar.com/chordsearch/D%237sus2",
    "http://jguitar.com/chordsearch/Eb7sus2",
    "http://jguitar.com/chordsearch/E7sus2",
    "http://jguitar.com/chordsearch/F7sus2",
    "http://jguitar.com/chordsearch/F%237sus2",
    "http://jguitar.com/chordsearch/Gb7sus2",
    "http://jguitar.com/chordsearch/G7sus2",
    "http://jguitar.com/chordsearch/G%237sus2",
    "http://jguitar.com/chordsearch/Ab7sus2",
    "http://jguitar.com/chordsearch/A7sus2",
    "http://jguitar.com/chordsearch/A%237sus2",
    "http://jguitar.com/chordsearch/Bb7sus2",
    "http://jguitar.com/chordsearch/B7sus2",
    "http://jguitar.com/chordsearch/CM7sus2",
    "http://jguitar.com/chordsearch/C%23M7sus2",
    "http://jguitar.com/chordsearch/DbM7sus2",
    "http://jguitar.com/chordsearch/DM7sus2",
    "http://jguitar.com/chordsearch/D%23M7sus2",
    "http://jguitar.com/chordsearch/EbM7sus2",
    "http://jguitar.com/chordsearch/EM7sus2",
    "http://jguitar.com/chordsearch/FM7sus2",
    "http://jguitar.com/chordsearch/F%23M7sus2",
    "http://jguitar.com/chordsearch/GbM7sus2",
    "http://jguitar.com/chordsearch/GM7sus2",
    "http://jguitar.com/chordsearch/G%23M7sus2",
    "http://jguitar.com/chordsearch/AbM7sus2",
    "http://jguitar.com/chordsearch/AM7sus2",
    "http://jguitar.com/chordsearch/A%23M7sus2",
    "http://jguitar.com/chordsearch/BbM7sus2",
    "http://jguitar.com/chordsearch/BM7sus2",
    "http://jguitar.com/chordsearch/C7sus4",
    "http://jguitar.com/chordsearch/C%237sus4",
    "http://jguitar.com/chordsearch/Db7sus4",
    "http://jguitar.com/chordsearch/D7sus4",
    "http://jguitar.com/chordsearch/D%237sus4",
    "http://jguitar.com/chordsearch/Eb7sus4",
    "http://jguitar.com/chordsearch/E7sus4",
    "http://jguitar.com/chordsearch/F7sus4",
    "http://jguitar.com/chordsearch/F%237sus4",
    "http://jguitar.com/chordsearch/Gb7sus4",
    "http://jguitar.com/chordsearch/G7sus4",
    "http://jguitar.com/chordsearch/G%237sus4",
    "http://jguitar.com/chordsearch/Ab7sus4",
    "http://jguitar.com/chordsearch/A7sus4",
    "http://jguitar.com/chordsearch/A%237sus4",
    "http://jguitar.com/chordsearch/Bb7sus4",
    "http://jguitar.com/chordsearch/B7sus4",
    "http://jguitar.com/chordsearch/CM7sus4",
    "http://jguitar.com/chordsearch/C%23M7sus4",
    "http://jguitar.com/chordsearch/DbM7sus4",
    "http://jguitar.com/chordsearch/DM7sus4",
    "http://jguitar.com/chordsearch/D%23M7sus4",
    "http://jguitar.com/chordsearch/EbM7sus4",
    "http://jguitar.com/chordsearch/EM7sus4",
    "http://jguitar.com/chordsearch/FM7sus4",
    "http://jguitar.com/chordsearch/F%23M7sus4",
    "http://jguitar.com/chordsearch/GbM7sus4",
    "http://jguitar.com/chordsearch/GM7sus4",
    "http://jguitar.com/chordsearch/G%23M7sus4",
    "http://jguitar.com/chordsearch/AbM7sus4",
    "http://jguitar.com/chordsearch/AM7sus4",
    "http://jguitar.com/chordsearch/A%23M7sus4",
    "http://jguitar.com/chordsearch/BbM7sus4",
    "http://jguitar.com/chordsearch/BM7sus4",
    "http://jguitar.com/chordsearch/C7sus2%235",
    "http://jguitar.com/chordsearch/C%237sus2%235",
    "http://jguitar.com/chordsearch/Db7sus2%235",
    "http://jguitar.com/chordsearch/D7sus2%235",
    "http://jguitar.com/chordsearch/D%237sus2%235",
    "http://jguitar.com/chordsearch/Eb7sus2%235",
    "http://jguitar.com/chordsearch/E7sus2%235",
    "http://jguitar.com/chordsearch/F7sus2%235",
    "http://jguitar.com/chordsearch/F%237sus2%235",
    "http://jguitar.com/chordsearch/Gb7sus2%235",
    "http://jguitar.com/chordsearch/G7sus2%235",
    "http://jguitar.com/chordsearch/G%237sus2%235",
    "http://jguitar.com/chordsearch/Ab7sus2%235",
    "http://jguitar.com/chordsearch/A7sus2%235",
    "http://jguitar.com/chordsearch/A%237sus2%235",
    "http://jguitar.com/chordsearch/Bb7sus2%235",
    "http://jguitar.com/chordsearch/B7sus2%235",
    "http://jguitar.com/chordsearch/C7sus4%235",
    "http://jguitar.com/chordsearch/C%237sus4%235",
    "http://jguitar.com/chordsearch/Db7sus4%235",
    "http://jguitar.com/chordsearch/D7sus4%235",
    "http://jguitar.com/chordsearch/D%237sus4%235",
    "http://jguitar.com/chordsearch/Eb7sus4%235",
    "http://jguitar.com/chordsearch/E7sus4%235",
    "http://jguitar.com/chordsearch/F7sus4%235",
    "http://jguitar.com/chordsearch/F%237sus4%235",
    "http://jguitar.com/chordsearch/Gb7sus4%235",
    "http://jguitar.com/chordsearch/G7sus4%235",
    "http://jguitar.com/chordsearch/G%237sus4%235",
    "http://jguitar.com/chordsearch/Ab7sus4%235",
    "http://jguitar.com/chordsearch/A7sus4%235",
    "http://jguitar.com/chordsearch/A%237sus4%235",
    "http://jguitar.com/chordsearch/Bb7sus4%235",
    "http://jguitar.com/chordsearch/B7sus4%235",
    "http://jguitar.com/chordsearch/CM7sus4%235",
    "http://jguitar.com/chordsearch/C%23M7sus4%235",
    "http://jguitar.com/chordsearch/DbM7sus4%235",
    "http://jguitar.com/chordsearch/DM7sus4%235",
    "http://jguitar.com/chordsearch/D%23M7sus4%235",
    "http://jguitar.com/chordsearch/EbM7sus4%235",
    "http://jguitar.com/chordsearch/EM7sus4%235",
    "http://jguitar.com/chordsearch/FM7sus4%235",
    "http://jguitar.com/chordsearch/F%23M7sus4%235",
    "http://jguitar.com/chordsearch/GbM7sus4%235",
    "http://jguitar.com/chordsearch/GM7sus4%235",
    "http://jguitar.com/chordsearch/G%23M7sus4%235",
    "http://jguitar.com/chordsearch/AbM7sus4%235",
    "http://jguitar.com/chordsearch/AM7sus4%235",
    "http://jguitar.com/chordsearch/A%23M7sus4%235",
    "http://jguitar.com/chordsearch/BbM7sus4%235",
    "http://jguitar.com/chordsearch/BM7sus4%235",
    "http://jguitar.com/chordsearch/Csus2sus4",
    "http://jguitar.com/chordsearch/C%23sus2sus4",
    "http://jguitar.com/chordsearch/Dbsus2sus4",
    "http://jguitar.com/chordsearch/Dsus2sus4",
    "http://jguitar.com/chordsearch/D%23sus2sus4",
    "http://jguitar.com/chordsearch/Ebsus2sus4",
    "http://jguitar.com/chordsearch/Esus2sus4",
    "http://jguitar.com/chordsearch/Fsus2sus4",
    "http://jguitar.com/chordsearch/F%23sus2sus4",
    "http://jguitar.com/chordsearch/Gbsus2sus4",
    "http://jguitar.com/chordsearch/Gsus2sus4",
    "http://jguitar.com/chordsearch/G%23sus2sus4",
    "http://jguitar.com/chordsearch/Absus2sus4",
    "http://jguitar.com/chordsearch/Asus2sus4",
    "http://jguitar.com/chordsearch/A%23sus2sus4",
    "http://jguitar.com/chordsearch/Bbsus2sus4",
    "http://jguitar.com/chordsearch/Bsus2sus4",
    "http://jguitar.com/chordsearch/C7sus2sus4",
    "http://jguitar.com/chordsearch/C%237sus2sus4",
    "http://jguitar.com/chordsearch/Db7sus2sus4",
    "http://jguitar.com/chordsearch/D7sus2sus4",
    "http://jguitar.com/chordsearch/D%237sus2sus4",
    "http://jguitar.com/chordsearch/Eb7sus2sus4",
    "http://jguitar.com/chordsearch/E7sus2sus4",
    "http://jguitar.com/chordsearch/F7sus2sus4",
    "http://jguitar.com/chordsearch/F%237sus2sus4",
    "http://jguitar.com/chordsearch/Gb7sus2sus4",
    "http://jguitar.com/chordsearch/G7sus2sus4",
    "http://jguitar.com/chordsearch/G%237sus2sus4",
    "http://jguitar.com/chordsearch/Ab7sus2sus4",
    "http://jguitar.com/chordsearch/A7sus2sus4",
    "http://jguitar.com/chordsearch/A%237sus2sus4",
    "http://jguitar.com/chordsearch/Bb7sus2sus4",
    "http://jguitar.com/chordsearch/B7sus2sus4",
    "http://jguitar.com/chordsearch/CM7sus2sus4",
    "http://jguitar.com/chordsearch/C%23M7sus2sus4",
    "http://jguitar.com/chordsearch/DbM7sus2sus4",
    "http://jguitar.com/chordsearch/DM7sus2sus4",
    "http://jguitar.com/chordsearch/D%23M7sus2sus4",
    "http://jguitar.com/chordsearch/EbM7sus2sus4",
    "http://jguitar.com/chordsearch/EM7sus2sus4",
    "http://jguitar.com/chordsearch/FM7sus2sus4",
    "http://jguitar.com/chordsearch/F%23M7sus2sus4",
    "http://jguitar.com/chordsearch/GbM7sus2sus4",
    "http://jguitar.com/chordsearch/GM7sus2sus4",
    "http://jguitar.com/chordsearch/G%23M7sus2sus4",
    "http://jguitar.com/chordsearch/AbM7sus2sus4",
    "http://jguitar.com/chordsearch/AM7sus2sus4",
    "http://jguitar.com/chordsearch/A%23M7sus2sus4",
    "http://jguitar.com/chordsearch/BbM7sus2sus4",
    "http://jguitar.com/chordsearch/BM7sus2sus4",
    "http://jguitar.com/chordsearch/C5",
    "http://jguitar.com/chordsearch/C%235",
    "http://jguitar.com/chordsearch/Db5",
    "http://jguitar.com/chordsearch/D5",
    "http://jguitar.com/chordsearch/D%235",
    "http://jguitar.com/chordsearch/Eb5",
    "http://jguitar.com/chordsearch/E5",
    "http://jguitar.com/chordsearch/F5",
    "http://jguitar.com/chordsearch/F%235",
    "http://jguitar.com/chordsearch/Gb5",
    "http://jguitar.com/chordsearch/G5",
    "http://jguitar.com/chordsearch/G%235",
    "http://jguitar.com/chordsearch/Ab5",
    "http://jguitar.com/chordsearch/A5",
    "http://jguitar.com/chordsearch/A%235",
    "http://jguitar.com/chordsearch/Bb5",
    "http://jguitar.com/chordsearch/B5",
    "http://jguitar.com/chordsearch/Cadd9",
    "http://jguitar.com/chordsearch/C%23add9",
    "http://jguitar.com/chordsearch/Dbadd9",
    "http://jguitar.com/chordsearch/Dadd9",
    "http://jguitar.com/chordsearch/D%23add9",
    "http://jguitar.com/chordsearch/Ebadd9",
    "http://jguitar.com/chordsearch/Eadd9",
    "http://jguitar.com/chordsearch/Fadd9",
    "http://jguitar.com/chordsearch/F%23add9",
    "http://jguitar.com/chordsearch/Gbadd9",
    "http://jguitar.com/chordsearch/Gadd9",
    "http://jguitar.com/chordsearch/G%23add9",
    "http://jguitar.com/chordsearch/Abadd9",
    "http://jguitar.com/chordsearch/Aadd9",
    "http://jguitar.com/chordsearch/A%23add9",
    "http://jguitar.com/chordsearch/Bbadd9",
    "http://jguitar.com/chordsearch/Badd9"
]