[
    [
        "x",
        "x",
        "1",
        "0",
        "2",
        "0"
    ],
    [
        "x",
        "6",
        "5",
        "6",
        "5",
        "6"
    ],
    [
        "x",
        "6",
        "8",
        "9",
        "8",
        "9"
    ],
    [
        "11",
        "13",
        "11",
        "12",
        "11",
        "12"
    ],
    [
        "11",
        "13",
        "11",
        "12",
        "14",
        "12"
    ],
    [
        "11",
        "10",
        "11",
        "9",
        "x",
        "x"
    ],
    [
        "x",
        "x",
        "13",
        "12",
        "14",
        "12"
    ],
    [
        "x",
        "18",
        "17",
        "18",
        "17",
        "18"
    ],
    [
        "x",
        "18",
        "20",
        "21",
        "20",
        "21"
    ]
]