[
    [
        "x",
        "x",
        "1",
        "3",
        "3",
        "3"
    ],
    [
        "x",
        "x",
        "1",
        "0",
        "3",
        "3"
    ],
    [
        "x",
        "6",
        "5",
        "3",
        "3",
        "3"
    ],
    [
        "x",
        "6",
        "8",
        "7",
        "8",
        "6"
    ],
    [
        "11",
        "13",
        "12",
        "12",
        "11",
        "11"
    ],
    [
        "x",
        "6",
        "5",
        "3",
        "3",
        "6"
    ],
    [
        "x",
        "6",
        "5",
        "7",
        "4",
        "x"
    ],
    [
        "x",
        "6",
        "5",
        "7",
        "8",
        "x"
    ],
    [
        "11",
        "10",
        "8",
        "8",
        "8",
        "10"
    ],
    [
        "11",
        "10",
        "12",
        "12",
        "x",
        "x"
    ],
    [
        "x",
        "x",
        "13",
        "15",
        "15",
        "15"
    ],
    [
        "x",
        "18",
        "17",
        "15",
        "15",
        "15"
    ],
    [
        "x",
        "x",
        "13",
        "12",
        "11",
        "10"
    ],
    [
        "x",
        "18",
        "20",
        "19",
        "20",
        "18"
    ],
    [
        "x",
        "x",
        "13",
        "12",
        "15",
        "15"
    ],
    [
        "x",
        "18",
        "17",
        "15",
        "15",
        "18"
    ],
    [
        "x",
        "18",
        "17",
        "19",
        "16",
        "x"
    ],
    [
        "x",
        "18",
        "17",
        "19",
        "20",
        "x"
    ],
    [
        "x",
        "x",
        "x",
        "20",
        "20",
        "22"
    ]
]