[
    [
        "x",
        "x",
        "1",
        "4",
        "4",
        "1"
    ],
    [
        "x",
        "6",
        "3",
        "4",
        "4",
        "x"
    ],
    [
        "x",
        "6",
        "9",
        "8",
        "6",
        "7"
    ],
    [
        "x",
        "6",
        "3",
        "4",
        "6",
        "x"
    ],
    [
        "11",
        "8",
        "9",
        "8",
        "x",
        "x"
    ],
    [
        "11",
        "8",
        "9",
        "10",
        "x",
        "x"
    ],
    [
        "x",
        "x",
        "13",
        "10",
        "12",
        "11"
    ],
    [
        "x",
        "x",
        "13",
        "10",
        "12",
        "13"
    ],
    [
        "x",
        "x",
        "13",
        "16",
        "16",
        "13"
    ],
    [
        "x",
        "18",
        "21",
        "20",
        "18",
        "19"
    ],
    [
        "x",
        "18",
        "15",
        "16",
        "16",
        "x"
    ],
    [
        "x",
        "18",
        "15",
        "16",
        "18",
        "x"
    ]
]