[
    [
        "x",
        "4",
        "2",
        "4",
        "5",
        "5"
    ],
    [
        "x",
        "4",
        "2",
        "4",
        "2",
        "5"
    ],
    [
        "x",
        "4",
        "7",
        "4",
        "5",
        "5"
    ],
    [
        "9",
        "7",
        "7",
        "9",
        "10",
        "7"
    ],
    [
        "9",
        "12",
        "9",
        "9",
        "10",
        "9"
    ],
    [
        "9",
        "12",
        "9",
        "9",
        "12",
        "9"
    ],
    [
        "x",
        "4",
        "7",
        "4",
        "5",
        "7"
    ],
    [
        "9",
        "12",
        "11",
        "9",
        "12",
        "9"
    ],
    [
        "9",
        "12",
        "9",
        "9",
        "12",
        "12"
    ],
    [
        "9",
        "12",
        "9",
        "9",
        "10",
        "12"
    ],
    [
        "x",
        "16",
        "14",
        "16",
        "17",
        "17"
    ],
    [
        "x",
        "16",
        "14",
        "16",
        "14",
        "17"
    ],
    [
        "x",
        "x",
        "11",
        "14",
        "12",
        "12"
    ],
    [
        "21",
        "19",
        "19",
        "21",
        "22",
        "19"
    ],
    [
        "x",
        "16",
        "19",
        "16",
        "17",
        "17"
    ],
    [
        "x",
        "16",
        "19",
        "16",
        "17",
        "19"
    ]
]