[
    [
        "x",
        "4",
        "4",
        "5",
        "5",
        "x"
    ],
    [
        "x",
        "4",
        "2",
        "5",
        "2",
        "2"
    ],
    [
        "x",
        "4",
        "2",
        "5",
        "5",
        "2"
    ],
    [
        "9",
        "9",
        "10",
        "9",
        "x",
        "x"
    ],
    [
        "9",
        "7",
        "10",
        "9",
        "7",
        "x"
    ],
    [
        "x",
        "x",
        "11",
        "11",
        "13",
        "12"
    ],
    [
        "x",
        "16",
        "14",
        "17",
        "14",
        "14"
    ],
    [
        "x",
        "16",
        "16",
        "17",
        "17",
        "x"
    ],
    [
        "x",
        "16",
        "14",
        "17",
        "17",
        "14"
    ],
    [
        "21",
        "21",
        "22",
        "21",
        "x",
        "x"
    ],
    [
        "21",
        "19",
        "22",
        "21",
        "19",
        "x"
    ]
]