[
    [
        "x",
        "4",
        "5",
        "6",
        "4",
        "x"
    ],
    [
        "9",
        "10",
        "11",
        "8",
        "8",
        "x"
    ],
    [
        "x",
        "x",
        "x",
        "6",
        "4",
        "3"
    ],
    [
        "x",
        "x",
        "11",
        "8",
        "8",
        "9"
    ],
    [
        "x",
        "x",
        "11",
        "8",
        "8",
        "11"
    ],
    [
        "x",
        "x",
        "11",
        "12",
        "14",
        "11"
    ],
    [
        "x",
        "16",
        "17",
        "18",
        "16",
        "x"
    ],
    [
        "x",
        "x",
        "x",
        "18",
        "16",
        "15"
    ]
]