[
    [
        "x",
        "x",
        "0",
        "1",
        "1",
        "1"
    ],
    [
        "x",
        "5",
        "3",
        "5",
        "3",
        "4"
    ],
    [
        "x",
        "5",
        "6",
        "7",
        "6",
        "8"
    ],
    [
        "10",
        "11",
        "10",
        "13",
        "13",
        "13"
    ],
    [
        "10",
        "11",
        "12",
        "13",
        "13",
        "13"
    ],
    [
        "x",
        "5",
        "6",
        "5",
        "6",
        "8"
    ],
    [
        "10",
        "11",
        "10",
        "10",
        "13",
        "10"
    ],
    [
        "10",
        "11",
        "10",
        "10",
        "13",
        "13"
    ],
    [
        "10",
        "11",
        "12",
        "10",
        "13",
        "10"
    ],
    [
        "10",
        "11",
        "12",
        "10",
        "13",
        "13"
    ],
    [
        "x",
        "17",
        "15",
        "17",
        "15",
        "16"
    ],
    [
        "x",
        "17",
        "18",
        "19",
        "18",
        "20"
    ],
    [
        "x",
        "17",
        "18",
        "17",
        "18",
        "20"
    ]
]