[
    [
        "x",
        "x",
        "0",
        "3",
        "2",
        "1"
    ],
    [
        "x",
        "5",
        "3",
        "6",
        "6",
        "6"
    ],
    [
        "x",
        "5",
        "3",
        "6",
        "3",
        "6"
    ],
    [
        "x",
        "5",
        "8",
        "6",
        "6",
        "6"
    ],
    [
        "x",
        "5",
        "3",
        "3",
        "2",
        "x"
    ],
    [
        "10",
        "13",
        "11",
        "10",
        "11",
        "10"
    ],
    [
        "x",
        "x",
        "12",
        "10",
        "11",
        "9"
    ],
    [
        "x",
        "17",
        "15",
        "18",
        "18",
        "18"
    ],
    [
        "x",
        "17",
        "15",
        "18",
        "15",
        "18"
    ],
    [
        "x",
        "17",
        "20",
        "18",
        "18",
        "18"
    ],
    [
        "x",
        "x",
        "12",
        "15",
        "14",
        "13"
    ],
    [
        "x",
        "17",
        "15",
        "15",
        "14",
        "x"
    ]
]