[
    [
        "x",
        "x",
        "0",
        "1",
        "3",
        "0"
    ],
    [
        "x",
        "5",
        "6",
        "7",
        "5",
        "x"
    ],
    [
        "10",
        "11",
        "12",
        "9",
        "9",
        "x"
    ],
    [
        "x",
        "x",
        "x",
        "7",
        "5",
        "4"
    ],
    [
        "x",
        "x",
        "12",
        "9",
        "9",
        "10"
    ],
    [
        "x",
        "x",
        "12",
        "9",
        "9",
        "12"
    ],
    [
        "x",
        "x",
        "12",
        "13",
        "15",
        "12"
    ],
    [
        "x",
        "17",
        "18",
        "19",
        "17",
        "x"
    ],
    [
        "x",
        "x",
        "x",
        "19",
        "17",
        "16"
    ]
]