[
    [
        "0",
        "2",
        "2",
        "1",
        "2",
        "0"
    ],
    [
        "x",
        "x",
        "2",
        "4",
        "2",
        "4"
    ],
    [
        "x",
        "7",
        "9",
        "9",
        "9",
        "9"
    ],
    [
        "12",
        "11",
        "9",
        "9",
        "9",
        "9"
    ],
    [
        "x",
        "x",
        "2",
        "1",
        "2",
        "4"
    ],
    [
        "x",
        "7",
        "6",
        "9",
        "9",
        "9"
    ],
    [
        "x",
        "7",
        "6",
        "6",
        "9",
        "9"
    ],
    [
        "x",
        "7",
        "6",
        "6",
        "5",
        "x"
    ],
    [
        "12",
        "11",
        "11",
        "9",
        "9",
        "9"
    ],
    [
        "12",
        "11",
        "9",
        "9",
        "12",
        "9"
    ],
    [
        "x",
        "7",
        "6",
        "6",
        "9",
        "7"
    ],
    [
        "12",
        "11",
        "11",
        "13",
        "12",
        "x"
    ],
    [
        "12",
        "11",
        "11",
        "13",
        "14",
        "x"
    ],
    [
        "x",
        "7",
        "9",
        "6",
        "9",
        "x"
    ],
    [
        "x",
        "19",
        "21",
        "21",
        "21",
        "21"
    ],
    [
        "x",
        "x",
        "14",
        "13",
        "14",
        "12"
    ],
    [
        "x",
        "19",
        "18",
        "21",
        "21",
        "21"
    ],
    [
        "x",
        "x",
        "14",
        "16",
        "14",
        "16"
    ],
    [
        "x",
        "19",
        "18",
        "18",
        "21",
        "21"
    ],
    [
        "12",
        "14",
        "11",
        "13",
        "x",
        "x"
    ],
    [
        "x",
        "x",
        "14",
        "13",
        "14",
        "16"
    ],
    [
        "x",
        "19",
        "18",
        "18",
        "21",
        "19"
    ],
    [
        "x",
        "19",
        "18",
        "18",
        "17",
        "x"
    ],
    [
        "x",
        "19",
        "21",
        "18",
        "21",
        "x"
    ]
]