[
    [
        "x",
        "6",
        "8",
        "8",
        "7",
        "6"
    ],
    [
        "x",
        "x",
        "1",
        "3",
        "4",
        "2"
    ],
    [
        "11",
        "13",
        "13",
        "11",
        "11",
        "11"
    ],
    [
        "x",
        "6",
        "4",
        "3",
        "4",
        "x"
    ],
    [
        "11",
        "13",
        "13",
        "11",
        "11",
        "14"
    ],
    [
        "11",
        "9",
        "8",
        "8",
        "11",
        "x"
    ],
    [
        "11",
        "9",
        "8",
        "11",
        "x",
        "x"
    ],
    [
        "x",
        "18",
        "20",
        "20",
        "19",
        "18"
    ],
    [
        "x",
        "x",
        "13",
        "15",
        "16",
        "14"
    ],
    [
        "x",
        "18",
        "16",
        "15",
        "16",
        "x"
    ]
]