[
    [
        "x",
        "x",
        "2",
        "3",
        "5",
        "2"
    ],
    [
        "x",
        "7",
        "8",
        "9",
        "7",
        "x"
    ],
    [
        "12",
        "13",
        "14",
        "11",
        "11",
        "x"
    ],
    [
        "x",
        "x",
        "x",
        "9",
        "7",
        "6"
    ],
    [
        "x",
        "x",
        "14",
        "11",
        "11",
        "12"
    ],
    [
        "x",
        "x",
        "14",
        "11",
        "11",
        "14"
    ],
    [
        "x",
        "x",
        "14",
        "15",
        "17",
        "14"
    ],
    [
        "x",
        "19",
        "20",
        "21",
        "19",
        "x"
    ],
    [
        "x",
        "x",
        "x",
        "21",
        "19",
        "18"
    ]
]