[
    [
        "2",
        "1",
        "0",
        "3",
        "3",
        "0"
    ],
    [
        "2",
        "1",
        "2",
        "3",
        "3",
        "x"
    ],
    [
        "2",
        "5",
        "2",
        "3",
        "3",
        "2"
    ],
    [
        "2",
        "5",
        "2",
        "3",
        "5",
        "2"
    ],
    [
        "x",
        "x",
        "4",
        "7",
        "5",
        "6"
    ],
    [
        "x",
        "9",
        "12",
        "9",
        "11",
        "10"
    ],
    [
        "14",
        "13",
        "14",
        "15",
        "15",
        "x"
    ],
    [
        "x",
        "9",
        "12",
        "11",
        "11",
        "12"
    ],
    [
        "14",
        "17",
        "14",
        "15",
        "15",
        "14"
    ],
    [
        "x",
        "9",
        "12",
        "9",
        "11",
        "12"
    ],
    [
        "14",
        "17",
        "14",
        "15",
        "17",
        "14"
    ],
    [
        "x",
        "x",
        "16",
        "19",
        "17",
        "18"
    ]
]