[
    [
        "2",
        "2",
        "0",
        "x",
        "x",
        "x"
    ],
    [
        "2",
        "2",
        "4",
        "4",
        "3",
        "2"
    ],
    [
        "x",
        "9",
        "9",
        "7",
        "7",
        "7"
    ],
    [
        "2",
        "5",
        "4",
        "4",
        "x",
        "x"
    ],
    [
        "x",
        "x",
        "4",
        "7",
        "7",
        "7"
    ],
    [
        "x",
        "9",
        "9",
        "7",
        "7",
        "10"
    ],
    [
        "14",
        "14",
        "16",
        "16",
        "15",
        "14"
    ],
    [
        "x",
        "9",
        "9",
        "11",
        "12",
        "10"
    ],
    [
        "x",
        "9",
        "12",
        "11",
        "12",
        "x"
    ],
    [
        "x",
        "21",
        "21",
        "19",
        "19",
        "19"
    ],
    [
        "14",
        "14",
        "12",
        "11",
        "x",
        "x"
    ],
    [
        "14",
        "17",
        "16",
        "16",
        "x",
        "x"
    ],
    [
        "x",
        "21",
        "21",
        "19",
        "19",
        "22"
    ],
    [
        "x",
        "x",
        "16",
        "19",
        "19",
        "19"
    ]
]