[
    [
        "1",
        "0",
        "0",
        "2",
        "1",
        "1"
    ],
    [
        "1",
        "0",
        "3",
        "2",
        "3",
        "x"
    ],
    [
        "1",
        "0",
        "0",
        "2",
        "3",
        "1"
    ],
    [
        "1",
        "3",
        "0",
        "2",
        "1",
        "x"
    ],
    [
        "1",
        "3",
        "0",
        "2",
        "3",
        "x"
    ],
    [
        "x",
        "x",
        "3",
        "2",
        "3",
        "1"
    ],
    [
        "x",
        "x",
        "3",
        "5",
        "3",
        "5"
    ],
    [
        "x",
        "8",
        "10",
        "10",
        "10",
        "10"
    ],
    [
        "13",
        "12",
        "10",
        "10",
        "10",
        "10"
    ],
    [
        "x",
        "8",
        "7",
        "10",
        "10",
        "10"
    ],
    [
        "x",
        "x",
        "3",
        "2",
        "3",
        "5"
    ],
    [
        "x",
        "8",
        "7",
        "7",
        "10",
        "10"
    ],
    [
        "13",
        "12",
        "12",
        "10",
        "10",
        "10"
    ],
    [
        "x",
        "8",
        "7",
        "7",
        "6",
        "x"
    ],
    [
        "13",
        "12",
        "10",
        "10",
        "13",
        "10"
    ],
    [
        "x",
        "8",
        "7",
        "7",
        "10",
        "8"
    ],
    [
        "13",
        "12",
        "12",
        "14",
        "13",
        "x"
    ],
    [
        "13",
        "12",
        "12",
        "14",
        "15",
        "x"
    ],
    [
        "x",
        "8",
        "10",
        "7",
        "10",
        "x"
    ],
    [
        "x",
        "20",
        "22",
        "22",
        "22",
        "22"
    ],
    [
        "x",
        "x",
        "15",
        "14",
        "15",
        "13"
    ],
    [
        "x",
        "20",
        "19",
        "22",
        "22",
        "22"
    ],
    [
        "x",
        "x",
        "15",
        "17",
        "15",
        "17"
    ],
    [
        "x",
        "20",
        "19",
        "19",
        "22",
        "22"
    ]
]