[
    [
        "1",
        "4",
        "3",
        "1",
        "2",
        "1"
    ],
    [
        "x",
        "x",
        "3",
        "1",
        "2",
        "4"
    ],
    [
        "x",
        "8",
        "6",
        "6",
        "9",
        "9"
    ],
    [
        "x",
        "8",
        "6",
        "6",
        "6",
        "9"
    ],
    [
        "x",
        "x",
        "3",
        "6",
        "6",
        "4"
    ],
    [
        "x",
        "8",
        "11",
        "10",
        "9",
        "9"
    ],
    [
        "13",
        "16",
        "15",
        "13",
        "14",
        "13"
    ],
    [
        "13",
        "11",
        "11",
        "13",
        "14",
        "x"
    ],
    [
        "13",
        "11",
        "11",
        "10",
        "x",
        "x"
    ],
    [
        "x",
        "20",
        "18",
        "18",
        "21",
        "21"
    ],
    [
        "x",
        "20",
        "18",
        "18",
        "18",
        "21"
    ],
    [
        "x",
        "x",
        "15",
        "13",
        "14",
        "16"
    ],
    [
        "x",
        "x",
        "15",
        "18",
        "18",
        "16"
    ],
    [
        "x",
        "x",
        "x",
        "22",
        "21",
        "21"
    ]
]