[
    [
        "1",
        "1",
        "2",
        "1",
        "x",
        "x"
    ],
    [
        "x",
        "x",
        "3",
        "3",
        "5",
        "4"
    ],
    [
        "x",
        "8",
        "8",
        "9",
        "9",
        "x"
    ],
    [
        "x",
        "8",
        "6",
        "9",
        "6",
        "6"
    ],
    [
        "x",
        "8",
        "6",
        "9",
        "9",
        "6"
    ],
    [
        "13",
        "13",
        "14",
        "13",
        "x",
        "x"
    ],
    [
        "13",
        "11",
        "14",
        "13",
        "11",
        "x"
    ],
    [
        "x",
        "20",
        "18",
        "21",
        "18",
        "18"
    ],
    [
        "x",
        "x",
        "15",
        "15",
        "17",
        "16"
    ],
    [
        "x",
        "20",
        "18",
        "21",
        "21",
        "18"
    ],
    [
        "x",
        "20",
        "20",
        "21",
        "21",
        "x"
    ]
]