[
    [
        "4",
        "3",
        "4",
        "5",
        "5",
        "x"
    ],
    [
        "4",
        "7",
        "4",
        "5",
        "5",
        "4"
    ],
    [
        "4",
        "7",
        "4",
        "5",
        "7",
        "4"
    ],
    [
        "x",
        "x",
        "6",
        "9",
        "7",
        "8"
    ],
    [
        "x",
        "11",
        "14",
        "11",
        "13",
        "12"
    ],
    [
        "16",
        "19",
        "16",
        "17",
        "17",
        "16"
    ],
    [
        "16",
        "15",
        "16",
        "17",
        "17",
        "x"
    ],
    [
        "x",
        "11",
        "14",
        "13",
        "13",
        "14"
    ],
    [
        "x",
        "11",
        "14",
        "11",
        "13",
        "14"
    ],
    [
        "16",
        "19",
        "16",
        "17",
        "19",
        "16"
    ],
    [
        "x",
        "x",
        "18",
        "21",
        "19",
        "20"
    ]
]