[
    [
        "4",
        "6",
        "6",
        "4",
        "4",
        "4"
    ],
    [
        "4",
        "6",
        "6",
        "4",
        "4",
        "7"
    ],
    [
        "4",
        "2",
        "1",
        "1",
        "4",
        "x"
    ],
    [
        "4",
        "2",
        "1",
        "4",
        "x",
        "x"
    ],
    [
        "16",
        "18",
        "18",
        "16",
        "16",
        "16"
    ],
    [
        "x",
        "11",
        "13",
        "13",
        "12",
        "11"
    ],
    [
        "x",
        "x",
        "6",
        "8",
        "9",
        "7"
    ],
    [
        "16",
        "18",
        "18",
        "16",
        "16",
        "19"
    ],
    [
        "x",
        "11",
        "9",
        "8",
        "9",
        "x"
    ],
    [
        "16",
        "14",
        "13",
        "13",
        "16",
        "x"
    ],
    [
        "16",
        "14",
        "13",
        "16",
        "x",
        "x"
    ],
    [
        "x",
        "x",
        "18",
        "20",
        "21",
        "19"
    ]
]