[
    [
        "4",
        "6",
        "5",
        "5",
        "4",
        "4"
    ],
    [
        "4",
        "3",
        "5",
        "5",
        "x",
        "x"
    ],
    [
        "4",
        "3",
        "1",
        "1",
        "1",
        "3"
    ],
    [
        "x",
        "x",
        "6",
        "8",
        "8",
        "8"
    ],
    [
        "x",
        "x",
        "6",
        "5",
        "4",
        "3"
    ],
    [
        "x",
        "11",
        "10",
        "8",
        "8",
        "8"
    ],
    [
        "x",
        "x",
        "6",
        "5",
        "8",
        "8"
    ],
    [
        "x",
        "11",
        "13",
        "12",
        "13",
        "11"
    ],
    [
        "16",
        "18",
        "17",
        "17",
        "16",
        "16"
    ],
    [
        "x",
        "11",
        "10",
        "8",
        "8",
        "11"
    ],
    [
        "16",
        "15",
        "13",
        "13",
        "13",
        "15"
    ],
    [
        "x",
        "11",
        "10",
        "12",
        "9",
        "x"
    ],
    [
        "x",
        "11",
        "10",
        "12",
        "13",
        "x"
    ],
    [
        "16",
        "15",
        "17",
        "17",
        "x",
        "x"
    ],
    [
        "x",
        "x",
        "18",
        "20",
        "20",
        "20"
    ],
    [
        "x",
        "x",
        "18",
        "17",
        "16",
        "15"
    ],
    [
        "x",
        "x",
        "18",
        "17",
        "20",
        "20"
    ]
]