[
    [
        "2",
        "3",
        "4",
        "2",
        "x",
        "x"
    ],
    [
        "x",
        "x",
        "4",
        "2",
        "1",
        "2"
    ],
    [
        "x",
        "x",
        "4",
        "5",
        "7",
        "5"
    ],
    [
        "x",
        "9",
        "10",
        "11",
        "10",
        "x"
    ],
    [
        "14",
        "15",
        "16",
        "14",
        "x",
        "x"
    ],
    [
        "x",
        "x",
        "x",
        "11",
        "10",
        "8"
    ],
    [
        "x",
        "x",
        "16",
        "14",
        "13",
        "14"
    ],
    [
        "x",
        "x",
        "16",
        "17",
        "19",
        "17"
    ]
]