[
    [
        "2",
        "4",
        "4",
        "2",
        "2",
        "2"
    ],
    [
        "2",
        "4",
        "4",
        "2",
        "2",
        "5"
    ],
    [
        "14",
        "16",
        "16",
        "14",
        "14",
        "14"
    ],
    [
        "x",
        "9",
        "11",
        "11",
        "10",
        "9"
    ],
    [
        "x",
        "x",
        "4",
        "6",
        "7",
        "5"
    ],
    [
        "14",
        "16",
        "16",
        "14",
        "14",
        "17"
    ],
    [
        "x",
        "9",
        "7",
        "6",
        "7",
        "x"
    ],
    [
        "14",
        "12",
        "11",
        "11",
        "14",
        "x"
    ],
    [
        "14",
        "12",
        "11",
        "14",
        "x",
        "x"
    ],
    [
        "x",
        "x",
        "16",
        "18",
        "19",
        "17"
    ],
    [
        "x",
        "21",
        "19",
        "18",
        "19",
        "x"
    ]
]