[
    [
        "2",
        "0",
        "2",
        "2",
        "1",
        "0"
    ],
    [
        "2",
        "3",
        "2",
        "5",
        "5",
        "5"
    ],
    [
        "2",
        "3",
        "4",
        "5",
        "5",
        "5"
    ],
    [
        "2",
        "3",
        "2",
        "2",
        "5",
        "2"
    ],
    [
        "2",
        "3",
        "2",
        "2",
        "5",
        "5"
    ],
    [
        "2",
        "3",
        "4",
        "2",
        "5",
        "2"
    ],
    [
        "2",
        "3",
        "4",
        "2",
        "5",
        "5"
    ],
    [
        "x",
        "9",
        "7",
        "9",
        "7",
        "8"
    ],
    [
        "x",
        "9",
        "10",
        "11",
        "10",
        "12"
    ],
    [
        "14",
        "15",
        "14",
        "17",
        "17",
        "17"
    ],
    [
        "14",
        "15",
        "16",
        "17",
        "17",
        "17"
    ],
    [
        "14",
        "15",
        "14",
        "14",
        "17",
        "14"
    ],
    [
        "14",
        "15",
        "14",
        "14",
        "17",
        "17"
    ],
    [
        "14",
        "15",
        "16",
        "14",
        "17",
        "14"
    ],
    [
        "14",
        "15",
        "16",
        "14",
        "17",
        "17"
    ],
    [
        "x",
        "9",
        "10",
        "9",
        "10",
        "12"
    ],
    [
        "x",
        "21",
        "19",
        "21",
        "19",
        "20"
    ],
    [
        "x",
        "21",
        "22",
        "21",
        "22",
        "x"
    ]
]