[
    [
        "2",
        "0",
        "0",
        "2",
        "3",
        "0"
    ],
    [
        "2",
        "0",
        "2",
        "2",
        "3",
        "0"
    ],
    [
        "2",
        "5",
        "2",
        "2",
        "3",
        "2"
    ],
    [
        "2",
        "5",
        "2",
        "2",
        "5",
        "2"
    ],
    [
        "2",
        "5",
        "4",
        "2",
        "5",
        "2"
    ],
    [
        "2",
        "5",
        "2",
        "2",
        "5",
        "5"
    ],
    [
        "2",
        "5",
        "2",
        "2",
        "3",
        "5"
    ],
    [
        "x",
        "x",
        "4",
        "7",
        "5",
        "5"
    ],
    [
        "x",
        "9",
        "7",
        "9",
        "10",
        "10"
    ],
    [
        "x",
        "9",
        "7",
        "9",
        "7",
        "10"
    ],
    [
        "x",
        "9",
        "12",
        "9",
        "10",
        "10"
    ],
    [
        "14",
        "12",
        "12",
        "14",
        "15",
        "12"
    ],
    [
        "14",
        "17",
        "14",
        "14",
        "15",
        "14"
    ],
    [
        "14",
        "17",
        "14",
        "14",
        "17",
        "14"
    ],
    [
        "14",
        "17",
        "16",
        "14",
        "17",
        "14"
    ],
    [
        "14",
        "17",
        "14",
        "14",
        "17",
        "17"
    ],
    [
        "x",
        "9",
        "12",
        "9",
        "10",
        "12"
    ],
    [
        "14",
        "17",
        "14",
        "14",
        "15",
        "17"
    ],
    [
        "x",
        "21",
        "19",
        "21",
        "22",
        "22"
    ],
    [
        "x",
        "21",
        "19",
        "21",
        "19",
        "22"
    ],
    [
        "x",
        "x",
        "16",
        "19",
        "17",
        "17"
    ]
]