[
    [
        "x",
        "x",
        "4",
        "1",
        "3",
        "2"
    ],
    [
        "x",
        "x",
        "4",
        "1",
        "3",
        "4"
    ],
    [
        "x",
        "x",
        "4",
        "7",
        "7",
        "4"
    ],
    [
        "x",
        "9",
        "6",
        "7",
        "7",
        "x"
    ],
    [
        "x",
        "9",
        "12",
        "11",
        "9",
        "10"
    ],
    [
        "x",
        "9",
        "6",
        "7",
        "9",
        "x"
    ],
    [
        "14",
        "11",
        "12",
        "11",
        "x",
        "x"
    ],
    [
        "14",
        "11",
        "12",
        "13",
        "x",
        "x"
    ],
    [
        "x",
        "x",
        "16",
        "13",
        "15",
        "14"
    ],
    [
        "x",
        "x",
        "16",
        "13",
        "15",
        "16"
    ],
    [
        "x",
        "x",
        "16",
        "19",
        "19",
        "16"
    ],
    [
        "x",
        "21",
        "18",
        "19",
        "19",
        "x"
    ],
    [
        "x",
        "21",
        "18",
        "19",
        "21",
        "x"
    ]
]