[
    [
        "3",
        "1",
        "1",
        "3",
        "4",
        "1"
    ],
    [
        "3",
        "6",
        "3",
        "3",
        "4",
        "3"
    ],
    [
        "3",
        "6",
        "3",
        "3",
        "6",
        "3"
    ],
    [
        "3",
        "6",
        "5",
        "3",
        "6",
        "3"
    ],
    [
        "3",
        "6",
        "3",
        "3",
        "6",
        "6"
    ],
    [
        "3",
        "6",
        "3",
        "3",
        "4",
        "6"
    ],
    [
        "x",
        "x",
        "5",
        "8",
        "6",
        "6"
    ],
    [
        "x",
        "10",
        "8",
        "10",
        "11",
        "11"
    ],
    [
        "x",
        "10",
        "8",
        "10",
        "8",
        "11"
    ],
    [
        "x",
        "10",
        "13",
        "10",
        "11",
        "11"
    ],
    [
        "15",
        "13",
        "13",
        "15",
        "16",
        "13"
    ],
    [
        "15",
        "18",
        "15",
        "15",
        "16",
        "15"
    ],
    [
        "15",
        "18",
        "15",
        "15",
        "18",
        "15"
    ],
    [
        "15",
        "18",
        "17",
        "15",
        "18",
        "15"
    ],
    [
        "15",
        "18",
        "15",
        "15",
        "18",
        "18"
    ],
    [
        "x",
        "10",
        "13",
        "10",
        "11",
        "13"
    ],
    [
        "15",
        "18",
        "15",
        "15",
        "16",
        "18"
    ],
    [
        "x",
        "x",
        "17",
        "20",
        "18",
        "18"
    ]
]