[
    [
        "3",
        "0",
        "1",
        "0",
        "x",
        "x"
    ],
    [
        "3",
        "0",
        "1",
        "2",
        "x",
        "x"
    ],
    [
        "x",
        "x",
        "5",
        "2",
        "4",
        "3"
    ],
    [
        "x",
        "x",
        "5",
        "2",
        "4",
        "5"
    ],
    [
        "x",
        "x",
        "5",
        "8",
        "8",
        "5"
    ],
    [
        "x",
        "10",
        "7",
        "8",
        "8",
        "x"
    ],
    [
        "x",
        "10",
        "13",
        "12",
        "10",
        "11"
    ],
    [
        "x",
        "10",
        "7",
        "8",
        "10",
        "x"
    ],
    [
        "15",
        "12",
        "13",
        "12",
        "x",
        "x"
    ],
    [
        "15",
        "12",
        "13",
        "14",
        "x",
        "x"
    ],
    [
        "x",
        "x",
        "17",
        "14",
        "16",
        "15"
    ],
    [
        "x",
        "x",
        "17",
        "14",
        "16",
        "17"
    ],
    [
        "x",
        "x",
        "17",
        "20",
        "20",
        "17"
    ],
    [
        "x",
        "22",
        "19",
        "20",
        "20",
        "x"
    ],
    [
        "x",
        "22",
        "19",
        "20",
        "22",
        "x"
    ]
]